[
  {
    "headerName": "Code",
    "field": "Code",
    "filter": "agSetColumnFilter"
  },
  {
    "headerName": "Name",
    "field": "Name",
    "sortable": true,
    "filter": "agTextColumnFilter",
    "resizable": true,
    "editable": true,
    "routingpath": "..",
    "routingparams": "Id"
  },
  {
    "headerName": "ConversionFactor",
    "field": "ConversionFactor",
    "sortable": true,
    "filter": "agNumberColumnFilter",
    "resizable": true,
    "editable": true,
    "routingpath": "./../../UOM",
    "routingparams": "Id"
  }
]
