[
    {
      "headerName": "Rev No.",
      "field": "revno"
    },
    {
      "headerName": "Rev Dt.",
      "field": "revdt"
    },
    {
      "headerName": "Ref No.",
      "field": "refno"
    },
    {
      "headerName": "Ref Dt.",
      "field": "refdt"
    },
    {
      "headerName": "Natural Val",
      "field": "natval"
    },
    {
      "headerName": "C2C",
      "field": "c2c"
    },
    {
      "headerName": "Cost/Hr",
      "field": "cph"
    },
    {
      "headerName": "Rate/Hr",
      "field": "rph"
    }
]