[
	{
	  "Condition": {
		"Fact": "dob",
		"Comparer": "EnumComparers.Changed",
		"Truthy": [
		  {
			"Name": "SetLock",
			"Field": "age",
			"Locked": true
		  }, 
		  {
			"Name": "SetValue",
			"Field": "age",
			"ValueType": "EnumValueType.Formula",
			"Value": {
			  "Field": "dob",
			  "Operator": "diffYears",
			  "ValueType": "EnumValueType.Function",
			  "Value": "Today" 
			} 
		  }, 
		  {
			"Name": "SetError",
			"Field": "age",
			"ErrorName": "ageappro",
			"ErrorMessage": "Age not appro!"
		  } 
		]
	  }
	},
	{
		"Condition": {
		  "Fact": "ms",
		  "Comparer": "EnumComparers.AreEqual",
		  "ValueType": "EnumValueType.Constant",
		  "Value": "Single",
		  "Truthy": [
			{
			  "Name": "SetRequired",
			  "Field": "snm",
			  "Required": false
			}, 
			{
			  "Name": "SetLock",
			  "Field": "dom",
			  "Locked": true
			}, 
			{
			  "Name": "SetLock",
			  "Field": "dod",
			  "Locked": true
			}, 
			{
			  "Name": "SetLock",
			  "Field": "dodt",
			  "Locked": true
			} 
		  ]
		}
	  }
  ]