{
    "ObjectFields": [
      {
        "BinTypeCode": {
            "PicklistUrl": "Bintype",
            "PicklistDisplayText": "Code,Name",
            "PicklistSearchFields": "Code,Name",
            "Multiple": false,
            "SLno":1,
            "PlaceHolder": "Enter Code",
            "PicklistSelection": "Id",
            "PicklistTitle": "Code",
            "Label": "Code*",
            "Width": 160,
            "AddNew": true,
            "MaxLength": 20,
            "ColumnWidth": "200",
            "ColumnType": "string,string",
            "isKeyField": true
        },
        "BinTypeName": {
            "PicklistUrl": "Bintype",
            "PicklistDisplayText": "Code,Name",
            "PicklistSearchFields": "Code,Name",
            "Multiple": false,
            "PicklistSelection": "Id",
            "PicklistTitle": "Name", 
            "PlaceHolder": "Enter Name",
            "Label": "Name*",
            "Width": 360,
            "AddNew": true,
            "MaxLength": 100,
            "ColumnWidth": "200",
            "ColumnType": "string,string",
            "isKeyField": true
          }
        
      },
      {
        "Name": "BinTypeId", 
        "Type": "number",
        "Required": true,
        "PostData": true,
        "ValidRegEx": "",
        "DefaultValue": 0
      },
      {
        "Name": "BinTypeCode",
        "Type": "string",
        "Required": true,
        "ValidRegEx": "",
        "DefaultValue": "",
        "PostData": true,
        "Label": "Code*"
      },
      {
        "Name": "BinTypeName",
        "Type": "string",
        "Required": true,
        "ValidRegEx": "",
        "DefaultValue": "",
        "PostData": true,
        "Label": "Name*"
      },
      { 
        "Name": "BinTypeMaxWeight",
        "Type": "number",
        "Required": true,
        "PostData": true,
        "LabelWidth":104,
        "ValidRegEx": "",
        "Mask":"0000000000000.0000",
        "Label":"Max.Weight",
        "MaxLength": 18,
        "Placeholder":"Enter Maximum Weight",
        "DefaultValue":0
      },
      {
        "Name": "BinTypeTotalCapacity",
        "Type": "number",
        "Required": true,
        "PostData": true,
        "ValidRegEx": "", 
        "Mask":"0000000000000.0000", 
        "MaxLength": 18,
        "LabelWidth":104,
        "Label":"Total Capacity",
        "Placeholder":"Enter Total Capacity",
        "DefaultValue":0
      },
      {
        "Name": "BinTypeRemarks",
        "Type": "string",
        "Required": false,
        "PostData": true,
        "ValidRegEx": "",
        "Label":"Remarks",
        "MaxLength":200,
        "LabelWidth":104,
        "Width":360,
        "Placeholder":"Enter the Remarks",
        "DefaultValue": ""
      },
      {
        "Name": "BinTypeSortOrder", 
        "Type": "string",
        "Required": false,
        "PostData": true,
        "ValidRegEx": "",
        "DefaultValue": "9999"
      },
      {
        "Name": "BinTypeStatus",
        "Type": "number",
        "Required": false, 
        "ValidRegEx": "",
        "PostData": true,
        "DefaultValue": 1
      },
      {
        "Name": "BinTypeVersion",
        "Type": "number",
        "Required": false,
        "PostData": true,
        "ValidRegEx": "",
        "DefaultValue": 1
      },
      {
        "Name": "BinTypeCreatedById",
        "Type": "number",
        "Required": false,
        "PostData": true,
        "ValidRegEx": "",
        "DefaultValue": -1
      },
      {
        "Name": "BinTypeCreatedOn",
        "Type": "string",
        "Required": false,
        "PostData": true,
        "ValidRegEx": "",
        "DefaultValue": "/Date(1622540243000)/"
      },
      {
        "Name": "BinTypeCreatedByName",
        "Type": "string",
        "Required": false,
        "PostData": true,
        "ValidRegEx": "",
        "DefaultValue": "loginusername" 
      },
      {
        "Name": "BinTypeModifiedById",
        "Type": "number",
        "Required": false,
        "PostData": true,
        "ValidRegEx": "",
        "DefaultValue": -1
      },
      {
        "Name": "BinTypeModifiedByName",
        "Type": "string",
        "Required": false,
        "PostData": true,
        "ValidRegEx": "",
        "DefaultValue": "loginusername"
      },
      {
        "Name": "BinTypeModifiedOn",
        "Type": "string",
        "Required": false,
        "PostData": true,
        "ValidRegEx": "",
        "DefaultValue": "/Date(1655447212000)/"
      }
    ]
  }