{
    "ObjectFields": [
        {
            "BIZTransactionCode": {
                "PicklistUrl": "Biztransaction",
                "PicklistDisplayText": "Code,Name",
                "PicklistSearchFields": "Code,Name",
                "Multiple": false,
                "PicklistSelection": "Id",
                "PlaceHolder":"Enter Code",
                "PicklistTitle": "Name",
                "Label": "Code*",
                "Width": 160,
                "SLno":1,
                "AddNew": true,
                "MaxLength": 20,
                "ColumnWidth": "200,400",
                "ColumnType": "string,string",
                "isKeyField": true
            },
            "BIZTransactionName": {
                "PicklistUrl": "Biztransaction",
                "PicklistDisplayText": "Code,Name",
                "PicklistSearchFields": "Code,Name",
                "Multiple": false,
                "PicklistSelection": "Id",
                "PicklistTitle": "Name",
                "PlaceHolder":"Enter Name",
                "Label": " Name*",
                "Width": 360,
                "AddNew": true,
                "MaxLength": 40,
                "ColumnWidth": "200,400",
                "ColumnType": "string,string",
                "isKeyField": true
            },
            "BIZTransactionSubClassName": {
                "PicklistUrl": "BiztransactionSubclass",
                "PicklistDisplayText": "Code,Name",
                "PicklistSearchFields": "Name",
                "Multiple": false,
                "PicklistSelection": "Id",
                "PicklistTitle": "Name",
                "Label": "Sub Class*",
                "Width": 360,
                "LabelWidth":104,
                "AddNew": false,
                "PlaceHolder":"Select Sub Class",
                "ColumnWidth": "200,400",
                "ColumnType": "string,string",
                "LinkId": "BIZTransactionSubClassId"
            },
            "ProcessName": {
                "PicklistUrl": "Process",
                "PicklistDisplayText": "Code,Name",
                "PicklistSearchFields": "Code,Name",
                "Multiple": false,
                "PicklistSelection": "Id",
                "PicklistTitle": "Name",
                "Label": " Process*",
                "PlaceHolder":"Select Process",
                "Width": 360,
                "LabelWidth":104,
                "AddNew": false,
                "ColumnWidth": "200,400",
                "ColumnType": "string,string",
                "LinkId": "ProcessId"
            },
            "FinanceBookName": {
                "PicklistUrl": "FinanceBook",
                "PicklistDisplayText": "Name",
                "PicklistSearchFields": "Name",
                "Multiple": false,
                "PicklistSelection": "Id",
                "PicklistTitle": "Name",
                "Label": "Finance Book",
                "PlaceHolder":"Select Finance Book",
                "Width": 360,
                "LabelWidth":104,
                "AddNew": false,
                "ColumnWidth": "250",
                "ColumnType": "string",
                "LinkId": "FinanceBookId"
            }
        },
        {
            "Name": "BIZTransactionId",
            "Type": "number",
            "Required": true,
            "ValidRegEx": "",
            "PostData": true,
            "DefaultValue": 0
        },
        {
            "Name": "BIZTransactionCode",
            "Type": "string",
            "Label": "Code*",
            "Required": true,
            "ValidRegEx": "",
            "PostData": true,
            "DefaultValue": ""
        },
        {
            "Name": "BIZTransactionName",
            "Type": "string",
            "Label": "Name*",
            "Required": true,
            "ValidRegEx": "",
            "PostData": true,
            "DefaultValue": ""
        },
        {
            "Name": "BIZTransactionSubClassName",
            "Type": "string",
            "Label": "Sub Class*",
            "Required": true,
            "ValidRegEx": "",
            "PostData": true,
            "DefaultValue": ""
        },
        {
            "Name": "ProcessName",
            "Type": "string",
            "Label": " Process*",
            "Required": true,
            "ValidRegEx": "",
            "PostData": true,
            "DefaultValue": ""
        },
        {
            "Name": "BIZTransactionSortOrder",
            "Type": "number",
            "Label": "Sort Order*",
            "Tooltip": "",
            "Required": true,
            "PostData": true,
            "ValidRegEx": "",
            "Placeholder": "Enter Sort Order",
            "LabelWidth":104,
            "DefaultValue": 9999,
            "MaxLength": 4,
            "Width": 120
        },
        {
            "Name": "FinanceBookName",
            "Type": "string",
            "Label": "Finance Book",
            "Required": false,
            "ValidRegEx": "",
            "PostData": true,
            "DefaultValue": "NONE"
        },
        {
            "Name": "BIZTransactionSubClassId",
            "Type": "string",
            "Tooltip": "",
            "Required": false,
            "PostData": true,
            "ValidRegEx": "",
            "Placeholder": "",
            "DefaultValue": ""
        },
        {
            "Name": "ProcessId",
            "Type": "string",
            "Label": " ",
            "Required": false,
            "ValidRegEx": "",
            "PostData": true,
            "DefaultValue": ""
        },
        {
            "Name": "BIZTransactionCreatedOn",
            "Type": "string",
            "Tooltip": "",
            "Required": false,
            "PostData": true,
            "ValidRegEx": "",
            "DefaultValue": "/Date(1396904760000)/"
        },
        {
            "Name": "BIZTransactionModifiedOn",
            "Type": "string",
            "Tooltip": "",
            "Required": false,
            "PostData": true,
            "ValidRegEx": "",
            "DefaultValue": "/Date(1708707060000)/"
        },
        {
            "Name": "BIZTransactionCreatedByName",
            "Type": "string",
            "Tooltip": "",
            "Required": false,
            "PostData": true,
            "ValidRegEx": "",
            "DefaultValue": "GBADMIN"
        },
        {
            "Name": "BIZTransactionModifiedByName",
            "Type": "string",
            "Tooltip": "",
            "DefaultValue": "ADMIN",
            "Required": false,
            "PostData": true,
            "ValidRegEx": ""
        },
        {
            "Name": "BIZTransactionSourceType",
            "Type": "number",
            "Tooltip": "",
            "Required": false,
            "PostData": true,
            "ValidRegEx": "",
            "DefaultValue": 5
        },
        {
            "Name": "BIZTransactionStatus",
            "Type": "number",
            "Tooltip": "",
            "Placeholder": "",
            "Required": false,
            "PostData": true,
            "ValidRegEx": "",
            "DefaultValue": 1
        },
        {
            "Name": "OrganizationUnitName",
            "Type": "string",
            "Tooltip": "",
            "Placeholder": "",
            "Required": false,
            "PostData": true,
            "ValidRegEx": "",
            "DefaultValue": ""
        },
        {
            "Name": "BIZTransactionVersion",
            "Type": "number",
            "Required": false,
            "PostData": true,
            "ValidRegEx": "",
            "DefaultValue": 1
        },
        {
            "Name": "FinanceBookId",
            "Type": "number",
            "Tooltip": "",
            "Required": false,
            "PostData": true,
            "ValidRegEx": "",
            "DefaultValue": -1
        }
    ]
}