{
    "ObjectFields": [
        {
            "BIZTransactionTypeClassName": {
                "PicklistUrl": "BIZTransactionClass",
                "PicklistDisplayText": "Name",
                "PicklistSearchFields": "Name",
                "Multiple": false,
                "PicklistSelection": "Id",
                "PicklistTitle": "Name",
                "Label": "Class*",
                "Width": 360,
                "PlaceHolder":"Select BIZTransaction Class",
                "AddNew": false,
                "MaxLength": 20,
                "ColumnWidth": "200",
                "ColumnType": "string",
                "LinkId":"BIZTransactionTypeClassId"
            },
            "BIZTransactionTypeSubClassName": {
                "PicklistUrl": "BiztransactionSubclass",
                "PicklistDisplayText": "Name",
                "PicklistSearchFields": "Name",
                "Multiple": false,
                "PicklistSelection": "Id",
                "PicklistTitle": "Name",
                "Label": "Sub-Class*",
                "Width": 360,
                "AddNew": false,
                "MaxLength": 50,
                "PlaceHolder":"Select BIZTransaction Sub Class",
                "ColumnWidth": "200",
                "ColumnType": "string",
                "LinkId":"BIZTransactionTypeSubClassId",
                "PicklistCriteria":"BiztransactionSubclass"
            },
            "BIZTransactionName": {
                "PicklistUrl": "BIZTransactionType",
                "PicklistDisplayText": "Name",
                "PicklistSearchFields": "Name",
                "Multiple": false,
                "PicklistSelection": "Id",
                "PicklistTitle": "Name",
                "Label": "BizTransaction Type*",
                "Width": 360,
                "AddNew": true,
                "MaxLength": 20,
                "PlaceHolder":"Enter BIZTransaction Type",
                "ColumnWidth": "200",
                "ColumnType": "string,string",
                "LinkId":"BIZTransactionId",
                "PicklistCriteria":"BizTransactionType"
            }
        },
        {
            "Name": "BizTransactionKeysId",
            "Type": "number",
            "Required": false,
            "ValidRegEx": "",
            "PostData": true,
            "DefaultValue": 0
        },
        {
            "Name": "BIZTransactionTypeId",
            "Type": "number",
            "Required": false,
            "ValidRegEx": "",
            "PostData": true,
            "DefaultValue": 0
        },
        {
            "Name": "BIZTransactionTypeSubClassId",
            "Type": "number",
            "Required": false,
            "ValidRegEx": "",
            "PostData": true,
            "DefaultValue": 0
        },
        {
            "Name": "BIZTransactionTypeClassId",
            "Type": "number",
            "Required": false,
            "ValidRegEx": "",
            "PostData": true,
            "DefaultValue": 0
        },
        {
            "Name": "BIZTransactionTypeClassName",
            "Type": "string",
            "Required": true,
            "ValidRegEx": "",
            "PostData": true,
            "DefaultValue": ""
        },
        {
            "Name": "BIZTransactionTypeSubClassName",
            "Type": "string",
            "Required": true,
            "ValidRegEx": "",
            "PostData": true,
            "DefaultValue": ""
        },
        {
            "Name": "BIZTransactionName",
            "Type": "string",
            "Required": true,
            "ValidRegEx": "",
            "PostData": true,
            "DefaultValue": ""
        },
        {
            "Name": "BIZTransactionTypeNOGenerationType",
            "Type": "number",
            "Label": "Numbering Type",
            "Placeholder": "",
            "Required": false,
            "PostData": true,
            "ValidRegEx": "",
            "DefaultValue": "",
            "ReadOnly":true,
            "Width": 200
        },
        {
            "Name": "BIZTransactionTypeNumberSize",
            "Type": "number",
            "Label": "Size",
            "DefaultValue": "",
            "Placeholder": "",
            "Required": false,
            "PostData": true,
            "ValidRegEx": "",
            "ReadOnly":true,
            "LabelWidth":180
        },
        {
            "Name": "BIZTransactionTypePrefix",
            "Type": "number",
            "Label": "Prefix",
            "Tooltip": "",
            "DefaultValue": "",
            "Placeholder": "",
            "Required": false,
            "PostData": true,
            "ValidRegEx": "",
            "ReadOnly":true,
            "Width": 200
        },
        {
            "Name": "BIZTransactionTypeSuffix",
            "Type": "number",
            "Label": "Suffix",
            "Tooltip": "",
            "Placeholder": "",
            "Required": false,
            "PostData": true,
            "ValidRegEx": "",
            "DefaultValue": "",
            "ReadOnly":true,
            "LabelWidth":180
           
        },
        {
            "Name": "BIZTransactionKeysLastNo",
            "Type": "number",
            "Label": "Last Number",
            "Tooltip": "",
            "DefaultValue": "",
            "Placeholder": "",
            "Required": false,
            "PostData": true,
            "ValidRegEx": "",
            "ReadOnly":true,
            "Width": 100
        },
        {
            "Name": "BIZTransactionKeysLastNumber",
            "Type": "number",
            "Label": " Number to Start From",
            "Tooltip": "",
            "DefaultValue": "",
            "Placeholder": "",
            "Required": false,
            "PostData": true,
            "ValidRegEx": "",
            "MaxLength":10
        }
    ]
}