{
  "ObjectFields": [
    {
      "ModuleName": {
        "PicklistUrl": "Module",
        "PicklistDisplayText": "Code,Name",
        "PicklistSearchFields": "Name",
        "Multiple": false,
        "PicklistSelection": "Id",
        "PicklistTitle": "Name",
        "Label": "Module*",
        "MaxLength": 20,
        "Width": 200,
        "PlaceHolder":"Select Module",
        "AddNew": false,
        "ColumnWidth": "200",
        "ColumnType": "string,string",
        "LinkId": "ModuleId,ModuleName"
      },
      "EntityName": {
        "PicklistUrl": "Entity",
        "PicklistDisplayText": "Code,Name",
        "PicklistSearchFields": "Name",
        "Multiple": false,
        "PicklistSelection": "Code",
        "PicklistTitle": "Name",
        "Label": "Entity*",
        "MaxLength": 20,
        "Width": 200,
        "PlaceHolder":"Select Entity",
        "AddNew": false,
        "ColumnWidth": "200",
        "ColumnType": "string,string",
        "isKeyValue": true,
        "PicklistCriteria": "Entity"
      },
      "CodeDefineFormulaName": {
        "PicklistUrl": "Leave",
        "PicklistDisplayText": "Name",
        "PicklistSearchFields": "Code,Name",
        "Multiple": false,
        "PicklistSelection": "Id",
        "PicklistTitle": "Name",
        "Label": "Formula",
        "MaxLength": 20,
        "PlaceHolder":"Select Forumula",
        "Width": 200,
        "AddNew": false,
        "ColumnWidth": "200",
        "ColumnType": "string,string",
        "LinkId": "CodeDefineFormulaId,CodeDefineFormulaName"
      }
    },
    {
      "Name": "CodeDefineId",
      "Type": "number",
      "Required": false,
      "ValidRegEx": "",
      "PostData": true,
      "DefaultValue": 0
    },
    {
      "Name": "ModuleId",
      "Type": "number",
      "Required": false,
      "ValidRegEx": "",
      "PostData": true,
      "DefaultValue": -1
    },
    {
      "Name": "ModuleName",
      "Type": "string",
      "Required": true,
      "ValidRegEx": "",
      "DefaultValue": "",
      "PostData": false,
      "Width": "200"
    },
    {
      "Label": "",
      "Name": "EntityId",
      "Type": "number",
      "Required": false,
      "PostData": false,
      "DefaultValue": -1
    },
    {
      "Name": "CodeDefineFormulaName",
      "Type": "string",
      "Required": false,
      "ValidRegEx": "",
      "DefaultValue": "",
      "PostData": false,
      "Width": "200"
    },
    {
      "Name": "EntityName",
      "Type": "string",
      "Required": true,
      "ValidRegEx": "",
      "DefaultValue": "",
      "PostData": false,
      "Width": "200"
    },
    {
      "Name": "EntityIsMultiCategory",
      "Type": "string",
      "Required": false,
      "ValidRegEx": "",
      "DefaultValue": "",
      "PostData": false,
      "Width": "200"
    },
    {
      "Name": "MultiCategory",
      "Type": "number",
      "Label": "Type",
      "Required": false,
      "ValidRegEx": "",
      "DefaultValue": 0,
      "PostData": false,
      "Width": "200",
      "PickLists": [
        {
          "key": 0,
          "value": "No Code"
        },
        {
          "key": 1,
          "value": "Single Category"
        },
        {
          "key": 2,
          "value": "Multi Category"
        }
      ]
    },
    {
      "Label": "Category Name",
      "Name": "CodeDefineCategoryName",
      "Type": "string",
      "DefaultValue": "NONE",
      "Required": false,
      "PostData": true,
      "MaxLength": 35
    },
    {
      "Label": "Category Code",
      "Name": "CodeDefineCategoryCode",
      "Type": "string",
      "DefaultValue": "NONE",
      "Required": false,
      "PostData": true,
      "MaxLength": 10
    },
    {
      "Label": "Code Size",
      "Name": "CodeDefineCodeSize",
      "Type": "number",
      "Required": false,
      "PostData": true,
      "Placeholder":"Enter Code Size",
      "MaxLength": 2,
      "DefaultValue": 0
    },
    {
      "Name": "CodeDefineStatus",
      "Type": "string",
      "Label": "",
      "Required": true,
      "PostData": true,
      "ValidRegEx": "",
      "DefaultValue": "1"
    },
    {
      "Name": "CodeDefineGenerationType",
      "Label": " Generation Type",
      "Type": "number",
      "Required": false,
      "PostData": true,
      "DefaultValue": 0,
      "PickLists": [
        {
          "key": 0,
          "value": "Auto"
        },
        {
          "key": 1,
          "value": "Manual"
        },
        {
          "key": 2,
          "value": "Formula"
        },
        {
          "key": 3,
          "value": "Hidden"
        },
        {
          "key": 4,
          "value": "TemplaeBased"
        }
      ]
    },
    {
      "Label": "Prefix",
      "Name": "CodeDefineCatPrefix",
      "Type": "string",
      "Required": false,
      "PostData": true,
      "Placeholder":"Enter Prefix",
      "DefaultValue": "0",
      "MaxLength": 6
    },
    {
      "Label": "Suffix",
      "Name": "CodeDefineCatSuffix",
      "MaxLength": 5,
      "Type": "string",
      "DefaultValue": "0",
      "Placeholder":"Enter Suffix",
      "Required": false,
      "PostData": true
    },
    {
      "Label": "Starting",
      "Name": "CodeDefineCatStartNo",
      "MaxLength": 6,
      "Type": "number",
      "Required": false,
      "Placeholder":"Enter Start Number",
      "PostData": true,
      "DefaultValue": 0
    },
    {
      "Label": "Ending",
      "Name": "CodeDefineCatEndNo",
      "MaxLength": 6,
      "Type": "number",
      "DefaultValue": 0,
      "Placeholder":"Enter End Number",
      "Required": false,
      "PostData": true
    },
    {
      "Name": "CodeDefineCatLastNo",
      "Label": "Last Number",
      "Type": "number",
      "DefaultValue": 0,
      "Placeholder":"Enter Last Number",
      "MaxLength": 6,
      "Required": false,
      "PostData": true
    },
    {
      "Label": "Formula",
      "Type": "string",
      "Name": "CodeDefineFormulaName",
      "Required": false,
      "DefaultValue": "NONE",
      "PostData": false,
      "MaxLength": 10
    },
    {
      "Name": "CodeDefineRemarks",
      "Label": "Remarks",
      "Type": "string",
      "DefaultValue": "",
      "Placeholder":"Enter Remarks",
      "Required": false,
      "PostData": true,
      "MaxLength": 200
    },
    {
      "Label": "",
      "Name": "CodeDefineFormulaId",
      "Type": "number",
      "Required": false,
      "PostData": true,
      "DefaultValue": -1
    },
    {
      "Label": "",
      "Name": "CodeDefineFormulaBasedFields",
      "Type": "string",
      "Required": false,
      "PostData": true,
      "DefaultValue": ""
    },
    {
      "Name": "CodeDefineArray",
      "Type": "string",
      "Label": "Code Define Array",
      "Tooltip": "",
      "Placeholder": "",
      "IsFieldRequired": false,
      "Required": true,
      "PostData": true,
      "Grid": [
        {
          "Label": "#",
          "value": "CodeDefineSlNo",
          "width": 50,
          "Type": "SNo",
          "IsVisible": true,
          "SNo": 1,
          "sticky": false,
          "Required": false,
          "PostData": true,
          "left": 0
        },
        {
          "Label": "Category Code",
          "value": "CodeDefineCategoryCode",
          "width": 150,
          "Type": "string",
          "IsVisible": true,
          "SNo": 2,
          "sticky": false,
          "Placeholder":"Enter Code",
          "Required": true,
          "PostData": true,
          "MaxLength": 10,
          "DefaultValue": "NONE",
          "left": 0
        },
        {
          "Label": "Category Name",
          "value": "CodeDefineCategoryName",
          "width": 150,
          "Type": "string",
          "IsVisible": true,
          "Required": false,
          "PostData": true,
          "Placeholder":"Enter Name",
          "SNo": 3,
          "MaxLength": 35,
          "sticky": false,
          "DefaultValue": "NONE",
          "left": 0
        },
        {
          "Label": "Code Size",
          "value": "CodeDefineCodeSize",
          "width": 150,
          "Type": "number",
          "IsVisible": true,
          "sticky": false,
          "SNo": 4,
          "Placeholder":"Enter Code Size",
          "left": 0,
          "MaxLength": 2,
          "Required": true,
          "PostData": true,
          "DefaultValue": 0
        },
        {
          "value": "CodeDefineGenerationType",
          "Label": "Type",
          "width": 200,
          "Type": "Combobox",
          "IsVisible": true,
          "SNo": 5,
          "sticky": false,
          "left": 0,
          "Required": false,
          "PostData": true,
          "DefaultId": true,
          "DefaultValue": 0,
          "PickLists": [
            {
              "key": 0,
              "value": "Auto"
            },
            {
              "key": 1,
              "value": "Manual"
            },
            {
              "key": 2,
              "value": "Formula"
            },
            {
              "key": 3,
              "value": "Hidden"
            },
            {
              "key": 4,
              "value": "TemplaeBased"
            }
          ]
        },
        {
          "value": "CodeDefineCatPrefix",
          "Label": "Prefix",
          "width": 100,
          "Type": "string",
          "IsVisible": true,
          "SNo": 6,
          "sticky": false,
          "MaxLength": 6,
          "Placeholder":"Enter Prefix",
          "left": 0,
          "Required": false,
          "PostData": true,
          "DefaultValue": "0"
        },
        {
          "Label": "Suffix",
          "value": "CodeDefineCatSuffix",
          "width": 100,
          "Type": "string",
          "MaxLength": 5,
          "IsVisible": true,
          "SNo": 7,
          "Placeholder":"Enter Suffix",
          "sticky": false,
          "left": 0,
          "DefaultValue": "0",
          "Required": false,
          "PostData": true
        },
        {
          "Label": "Starting",
          "value": "CodeDefineCatStartNo",
          "width": 100,
          "Type": "number",
          "IsVisible": true,
          "SNo": 8,
          "sticky": false,
          "MaxLength": 6,
          "left": 0,
          "Placeholder":"Enter Start Number",
          "Required": false,
          "PostData": true,
          "DefaultValue": 0
        },
        {
          "Label": "Ending",
          "value": "CodeDefineCatEndNo",
          "width": 100,
          "Type": "number",
          "IsVisible": true,
          "MaxLength": 6,
          "SNo": 9,
          "sticky": false,
          "left": 0,
          "Placeholder":"Enter End Number",
          "DefaultValue": 0,
          "Required": false,
          "PostData": true
        },
        {
          "value": "CodeDefineCatLastNo",
          "Label": "Last Number",
          "Type": "number",
          "width": 100,
          "IsVisible": true,
          "MaxLength": 6,
          "Placeholder":"Enter Last Number",
          "SNo": 10,
          "sticky": false,
          "DefaultValue": 0,
          "left": 0,
          "Required": false,
          "PostData": true
        },
        {
          "Label": "Formula",
          "value": "CodeDefineFormulaName",
          "width": 150,
          "Type": "Picklist",
          "IsVisible": true,
          "SNo": 11,
          "sticky": false,
          "MaxLength": 10,
          "DefaultValue": "",
          "left": 0,
          "Required": false,
          "PostData": false,
          "PicklistDetail": {
            "PicklistUrl": "Leave",
            "PicklistDisplayText": "Code,Name",
            "PicklistSearchFields": "Name",
            "Multiple": false,
            "PicklistSelection": "Id",
            "PicklistTitle": "Name",
            "Label": "",
            "MaxLength": 20,
            "LabelWidth": 80,
            "Width": 200,
            "PlaceHolder":"Select Forumula",
            "AddNew": false,
            "ColumnWidth": "150,300",
            "ColumnType": "string,string",
            "LinkId": "CodeDefineFormulaId,CodeDefineFormulaName"
          }
        },
        {
          "value": "CodeDefineRemarks",
          "Label": "Remarks",
          "Type": "string",
          "IsVisible": true,
          "width": 150,
          "MaxLength": 200,
          "SNo": 12,
          "sticky": false,
          "DefaultValue": "",
          "Placeholder":"Enter Remarks",
          "left": 0,
          "Required": false,
          "PostData": true
        },
        {
          "Label": "",
          "value": "CodeDefineFormulaId",
          "width": 50,
          "Type": "number",
          "IsVisible": false,
          "SNo": 13,
          "sticky": false,
          "left": 0,
          "Required": false,
          "PostData": true,
          "DefaultValue": -1
        },
        {
          "Label": "",
          "value": "CodeDefineFormulaBasedFields",
          "width": 50,
          "Type": "string",
          "IsVisible": false,
          "SNo": 14,
          "sticky": false,
          "left": 0,
          "Required": false,
          "PostData": true,
          "DefaultValue": ""
        },
        {
          "Label": "",
          "value": "CodeDefineAutoLoadCode",
          "width": 50,
          "Type": "string",
          "IsVisible": false,
          "SNo": 15,
          "sticky": false,
          "left": 0,
          "Required": false,
          "PostData": true,
          "DefaultValue": "1"
        },
        {
          "value": "CodeDefineStatus",
          "Type": "string",
          "IsVisible": false,
          "SNo": 16,
          "sticky": false,
          "left": 0,
          "Required": true,
          "PostData": true,
          "ValidRegEx": "",
          "DefaultValue": "1"
        },
        {
          "value": "CodeDefineVersion",
          "Type": "string",
          "IsVisible": false,
          "SNo": 17,
          "sticky": false,
          "left": 0,
          "Required": false,
          "PostData": true,
          "ValidRegEx": "",
          "DefaultValue": "0"
        },
        {
          "Label": "",
          "value": "EntityId",
          "width": 50,
          "Type": "number",
          "IsVisible": false,
          "SNo": 18,
          "sticky": false,
          "left": 0,
          "DefaultId":true,
          "Required": false,
          "PostData": true,
          "DefaultValue": -1
        },
        {
          "value": "CodeDefineId",
          "Type": "number",
          "Required": false,
          "IsVisible": false,
          "SNo": 19,
          "DefaultValue": 0
        },
        {
          "value": "EntityIsMultiCategory",
          "Required": false,
          "Type": "number",
          "IsVisible": false,
          "SNo": 20,
          "sticky": false,
          "left": 0,
          "ValidRegEx": "",
          "DefaultValue": "",
          "PostData": false,
          "Width": "200"
        },
        {
          "value": "undefined",
          "Required": false,
          "Type": "string",
          "IsVisible": false,
          "SNo": 21,
          "sticky": false,
          "left": 0,
          "ValidRegEx": "",
          "DefaultValue": "",
          "PostData": true,
          "Width": "200"
        }
      ]
    }
    
    
  ]
}