{
    "ObjectFields": [
        {
            "PartyName": {
                "PicklistUrl": "Party",
                "PicklistDisplayText": "Code,Name",
                "PicklistSearchFields": "Code,Name",
                "Multiple": false,
                "PicklistSelection": "Id",
                "PicklistTitle": "Name",
                "Label": "Party*",
                "LinkId": "PartyId",
                "SLno":1,
                "PlaceHolder":"Select Party",
                "Width": 300,
                "AddNew": false,
                "MaxLength": 35,
                "ColumnWidth": "150,250",
                "ColumnType": "string,string",
                "isKeyField": true
            },
            "PartyBranchName": {
                "PicklistUrl": "PartyBranch",
                "PicklistDisplayText": "Code,Name",
                "PicklistSearchFields": "Name",
                "Multiple": false,
                "PlaceHolder":"Select Party branch",
                "PicklistSelection": "Id",
                "PicklistTitle": "Name",
                "Label": "PartyBranch*",
                "LinkId": "PartyBranchId",
                "Width": 300,
                "AddNew": false,
                "MaxLength": 35,
                "ColumnWidth": "150,250",
                "ColumnType": "string,string",
                "isKeyField": true,
                "PicklistCriteria": "ContractSetting"
            },
            "ContractSettingVersionNo": {
                "PicklistUrl": "ContractSetting",
                "PicklistDisplayText": "VersionNo,EffectiveFromDate,EffectiveToDate",
                "PicklistSearchFields": "VersionNo",
                "Multiple": false,
                "PicklistSelection": "Id",
                "PicklistTitle": "Name",
                "PlaceHolder":"Select Version",
                "Label": "Version",
                "Width": 200,
                "AddNew": false,
                "MaxLength": 35,
                "ColumnWidth": "150,250",
                "ColumnType": "string,string",
                "PicklistCriteria": "ContractVersion"
            },
            "ContractStatusName": {
                "PicklistUrl": "TargetMasterItemLevel",
                "PicklistDisplayText":"'Name'",
                "PicklistSearchFields":"Name",
                "Multiple": false,
                "PicklistSelection": "Id",
                "PlaceHolder":"Select Status",
                "PicklistTitle": "Name",
                "Label": "Status",
                "LinkId": "ContractStatusId",
                "Width": 200,
                "AddNew": false,
                "MaxLength": 35,
                "ColumnWidth": "100,100",
                "ColumnType": "string,string",
                "PicklistCriteria": "ContractStatus"
            }
        },
        {
            "Name": "ContractSettingId",
            "Type": "number",
            "Required": true,
            "ValidRegEx": "",
            "DefaultValue": 0,
            "Width": 200
        },
        {
            "Name": "PartyId",
            "Type": "number",
            "Required": false,
            "ValidRegEx": "",
            "DefaultValue": -1,
            "Width": 200
        },
        {
            "Name": "PartyName",
            "Type": "string",
            "Label": "Party*",
            "PostData": false,
            "Required": true,
            "ValidRegEx": "",
            "DefaultValue": "",
            "Width": 200,
            "MaxLength": 20,
            "FormPicklist": {
                "PicklistUrl": "Party",
                "PicklistDisplayText": "Code,Name",
                "PicklistSearchFields": "Code,Name",
                "Multiple": false,
                "PicklistSelection": "Id",
                "PicklistTitle": "Name",
                "Label": "Party*",
                "LinkId": "PartyId",
                "Width": 200,
                "AddNew": false,
                "MaxLength": 35,
                "ColumnWidth": "150,250",
                "ColumnType": "string,string",
                "isKeyField": true
            }
        },
        {
            "Name": "PartyBranchCode",
            "Type": "string",
            "PostData": false,
            "Required": false,
            "ValidRegEx": "",
            "DefaultValue": "",
            "Width": 200
        },
        {
            "Name": "PartyBranchId",
            "Type": "number",
            "ValidRegEx": "",
            "Placeholder": "",
            "DefaultValue": -1,
            "Width": 200
        },
        {
            "Name": "PartyBranchName",
            "Type": "string",
            "Label": "Party Branch*",
            "Required": true,
            "PostData": false,
            "ValidRegEx": "",
            "DefaultValue": "",
            "Width": 200,
            "MaxLength": 20,
            "FormPicklist": {
                "PicklistUrl": "PartyBranch",
                "PicklistDisplayText": "Code,Name",
                "PicklistSearchFields": "Name",
                "Multiple": false,
                "PicklistSelection": "Id",
                "PicklistTitle": "Name",
                "Label": "PartyBranch*",
                "LinkId": "PartyBranchId",
                "Width": 200,
                "AddNew": false,
                "MaxLength": 35,
                "ColumnWidth": "150,250",
                "ColumnType": "string,string",
                "isKeyField": true,
                "PicklistCriteria": "ContractSetting"
            }
        },
        {
            "Name": "ContractSettingVersionNo",
            "Type": "number",
            "Required": false,
            "Label": "VersionNo",
            "ValidRegEx": "",
            "DefaultValue": 0,
            "Width": 400,
            "MaxLength": 20,
            "FormPicklist": {
                "PicklistUrl": "ContractSetting",
                "PicklistDisplayText": "VersionNo,EffectiveFromDate,EffectiveToDate",
                "PicklistSearchFields": "VersionNo",
                "Multiple": false,
                "PicklistSelection": "Id",
                "PicklistTitle": "Name",
                "Label": "Version",
                "Width": 200,
                "AddNew": false,
                "MaxLength": 35,
                "ColumnWidth": "150,250",
                "ColumnType": "string,string",
                "PicklistCriteria": "ContractVersion"
            }
        },
        {
            "Name": "ContractSettingEffectiveFrom",
            "Type": "string",
            "Label": "From Date",
            "Required": false,
            "ValidRegEx": "",
            "DefaultValue": "",
            "Width": 100
        },
        {
            "Name": "ContractSettingEffectiveTo",
            "Type": "string",
            "Label": "To Date",
            "Required": false,
            "ValidRegEx": "",
            "DefaultValue": "",
            "Placeholder": "",
            "Width": 100
        },
        {
            "Name": "ContractSettingNumber",
            "Type": "string",
            "Label": "Number",
            "Required": false,
            "Placeholder":"Enter Number",
            "ValidRegEx": "",
            "DefaultValue": "",
            "Width": 200,
            "MaxLength": 20
        },
        {
            "Name": "ContractSettingReferenceNumber",
            "Type": "string",
            "Label": "Reference Number",
            "Required": false,
            "ValidRegEx": "",
            "DefaultValue": "",
            "Width": 200,
            "MaxLength": 20,
            "Placeholder":"Enter Reference Number"
        },
        {
            "Name": "ContractSettingPricingType",
            "Type": "number",
            "Label": "Pricing Type",
            "Tooltip": "",
            "DefaultValue": 0,
            "Placeholder": "",
            "Required": false,
            "ValidRegEx": "",
            "PickLists": [
                {
                    "key": 0,
                    "value": "Static"
                },
                {
                    "key": 1,
                    "value": "Dynamic"
                }
            ]
        },
        {
            "Name": "ContractStatusId",
            "Type": "number",
            "Required": false,
            "ValidRegEx": "",
            "DefaultValue": -1,
            "Width": 100
        },
        {
            "Name": "ContractSettingBasePrice",
            "Type": "number",
            "Label": "Base Price",
            "Placeholder": "",
            "Required": false,
            "ValidRegEx": "",
            "DefaultValue": 0,
            "Width": 200,
            "MaxLength": 12
        },
        {
            "Name": "ContractStatusName",
            "Type": "string",
            "PostData": false,
            "Label": "Status",
            "Required": false,
            "ValidRegEx": "",
            "DefaultValue": "",
            "Width": 200,
            "MaxLength": 10,
            "FormPicklist": {
                "PicklistUrl": "TargetMasterItemLevel",
                "PicklistDisplayText": "'Name'",
                "PicklistSearchFields": "Name",
                "Multiple": false,
                "PicklistSelection": "Id",
                "PicklistTitle": "Name",
                "Label": "Status",
                "LinkId": "ContractStatusId",
                "Width": 200,
                "AddNew": false,
                "MaxLength": 35,
                "ColumnWidth": "150,250",
                "ColumnType": "string,string",
                "PicklistCriteria": "ContractStatus"
            }
        },
        {
            "Name": "ContractSettingChangePrice",
            "Type": "number",
            "Label": "Change in Price",
            "Placeholder": "",
            "Required": false,
            "ValidRegEx": "",
            "DefaultValue": 0,
            "Width": 200,
            "MaxLength": 12
        },
        {
            "Name": "ContractSettingChangePercent",
            "Type": "number",
            "Label": "% Change",
            "Placeholder": "",
            "Required": false,
            "ValidRegEx": "",
            "DefaultValue": 0,
            "Width": 200,
            "MaxLength": 4
        },
        {
            "Name": "ContractSettingIsFirstHitchCondition",
            "Type": "number",
            "Label": "First Hitch Condition",
            "Tooltip": "",
            "DefaultValue": 0,
            "Placeholder": "",
            "Required": false,
            "ValidRegEx": "",
            "PickLists": [
                {
                    "key": 0,
                    "value": "Yes"
                },
                {
                    "key": 1,
                    "value": "No"
                }
            ]
        },
        {
            "Name": "ContractSettingVolumeDiscountType",
            "Type": "number",
            "Label": "Volume Discount Type",
            "Tooltip": "",
            "DefaultValue": 0,
            "Placeholder": "",
            "Required": false,
            "ValidRegEx": "",
            "PickLists": [
                {
                    "key": 0,
                    "value": "No Discount"
                },
                {
                    "key": 1,
                    "value": "Monthly Only"
                },
                {
                    "key": 2,
                    "value": "Annual Only"
                }
            ]
        },
        {
            "Name": "ContractSettingEligibleVolume",
            "Type": "number",
            "Label": "Eligible Value for Volume",
            "Placeholder": "",
            "Required": false,
            "ValidRegEx": "",
            "DefaultValue": 0,
            "Width": 200,
            "MaxLength": 12
        },
        {
            "Name": "ContractSettingVolumeDiscountPercent",
            "Type": "number",
            "Label": "Volume Discount Percentage",
            "Required": false,
            "Placeholder": "",
            "ValidRegEx": "",
            "DefaultValue": 0,
            "Width": 200,
            "MaxLength": 5
        },
        {
            "Name": "ContractSettingMaxVolumeDiscountPercent",
            "Type": "number",
            "Label": "Max Discount Percentage",
            "Required": false,
            "ValidRegEx": "",
            "Placeholder": "",
            "DefaultValue": 0,
            "Width": 200,
            "MaxLength": 4
        },
        {
            "Name": "ContractSettingRemarks",
            "Type": "string",
            "Label": "Remarks",
            "Placeholder": "Enter Remarks",
            "Required": false,
            "ValidRegEx": "",
            "DefaultValue": "",
            "Width": 200
        },
        {
            "Name": "ContractStatusCode",
            "Type": "string",
            "PostData": false,
            "Required": false,
            "ValidRegEx": "",
            "DefaultValue": "",
            "Width": 200
        },
        {
            "Name": "ContractSettingSourceType",
            "Type": "number",
            "ValidRegEx": "",
            "Placeholder": "",
            "DefaultValue": 1,
            "PostData": false,
            "Width": 200
        },
        {
            "Name": "ContractSettingSortOrder",
            "Type": "number",
            "ValidRegEx": "",
            "PostData": false,
            "Placeholder": "",
            "DefaultValue": 1,
            "Width": 200
        },
        {
            "Name": "ContractSettingStatus",
            "Type": "number",
            "Placeholder": "",
            "Required": false,
            "ValidRegEx": "",
            "DefaultValue": 1,
            "Width": 200
        },
        {
            "Name": "ContractSettingCreatedOn",
            "Type": "string",
            "PostData": false,
            "Required": false,
            "ValidRegEx": "",
            "DefaultValue": "",
            "Width": 200
        },
        {
            "Name": "ContractSettingCreatedById",
            "Type": "number",
            "ValidRegEx": "",
            "Placeholder": "",
            "DefaultValue": 1,
            "PostData": false,
            "Width": 200
        },
        {
            "Name": "ContractSettingModifiedById",
            "Type": "number",
            "ValidRegEx": "",
            "Placeholder": "",
            "DefaultValue": -1,
            "PostData": false,
            "Width": 200
        },
        {
            "Name": "ContractSettingModifiedOn",
            "Type": "string",
            "PostData": false,
            "Required": false,
            "ValidRegEx": "",
            "DefaultValue": "",
            "Width": 200
        },
        {
            "Name": "ContractSettingVersion",
            "Type": "number",
            "Placeholder": "",
            "Required": false,
            "ValidRegEx": "",
            "DefaultValue": 1,
            "Width": 200
        }
    ]
}