{
    "ObjectFields": [
      {
        "CostHeadSetCode": {
          "PicklistUrl": "CostHeadSet",
          "PicklistDisplayText": "Code,Name",
          "PicklistSearchFields": "Code,Name",
          "Multiple": false,
          "PicklistSelection": "Id",
          "PicklistTitle": "Code",
          "Label": "Code*",
          "MaxLength": 20,
          "PlaceHolder":"Enter Code",
          "SLno":1,
          "Width": 160,
          "AddNew": true,
          "ColumnWidth": "200,300",
          "ColumnType": "string,string",
          "isKeyField": true
        },
        "CostHeadSetName": {
          "PicklistUrl": "CostHeadSet",
          "PicklistDisplayText": "Code,Name",
          "PicklistSearchFields": "Code,Name",
          "Multiple": false,
          "PicklistSelection": "Id",
          "PicklistTitle": "Name",
          "Label": "Name*",
          "MaxLength": 100,
          "PlaceHolder":"Enter Name",
          "Width": 360,
          "AddNew": true,
          "ColumnWidth": "200,300",
          "ColumnType": "string,string",
          "isKeyField": true
        }
      },
      {
        "Name": "CostHeadSetId",
        "Type": "number",
        "Required": false,
        "ValidRegEx": "",
        "PostData": true,
        "DefaultValue": 0
      },
      {
        "Name": "CostHeadSetName",
        "Type": "string",
        "Required": true,
        "PostData": true,
        "ValidRegEx": "",
        "DefaultValue": "",
        "Label": "Name*"
      },
      {
        "Name": "CostHeadSetCode",
        "Type": "string",
        "Required": true,
        "PostData": true,
        "ValidRegEx": "",
        "DefaultValue": "",
        "Label": "Code*"
      },
      {
        "Name": "CostHeadSetDetailArray",
        "Type": "string",
        "Label": "Cost Head Set Detail Array",
        "IsFieldRequired": true,
        "Required": true,
        "PostData": true,
        "Grid": [
          {
            "Label": "#",
            "value": "CostHeadSetDetailSlNo",
            "width": 50,
            "Type": "DefaultSNo",
            "IsVisible": true,
            "SNo": 1,
            "sticky": false,
            "Required": false,
            "PostData": true,
            "left": 0
          },
          {
            "Label": "Cost Head*",
            "value": "CostHeadCode",
            "width": 390,
            "Type": "Picklist",
            "IsVisible": true,
            "SNo": 2,
            "sticky": false,
            "Required": true,
            "DefaultValue":"",
            "PostData": true,
            "left": 0,
            "PicklistDetail": {
              "PicklistUrl": "CostHead",
              "PicklistDisplayText": "Code,Name",
              "PicklistSearchFields": "Code,Name",
              "Multiple": false,
              "PicklistSelection": "Id",
              "PicklistTitle": "Code",
              "Label": "",
              "Width": 360,
              "LinkId": "CostHeadId,CostHeadCode",
              "AddNew": false,
              "PlaceHolder":"Select Code",
              "MaxLength": 35,
              "ColumnWidth": "300,400",
              "ColumnType": "string,string"
            }
          },
          {
            "Label": "",
            "value": "CostHeadCode",
            "width": 150,
            "Type": "string",
            "IsVisible": false,
            "Required": false,
            "PostData": true,
            "SNo": 5,
            "sticky": false,
            "DefaultValue": "",
            "left": 0
          },
          {
            "Label": "",
            "value": "CostHeadSetDetailId",
            "width": 200,
            "Type": "number",
            "IsVisible": false,
            "sticky": false,
            "SNo": 4,
            "left": 0,
            "Required": false,
            "PostData": true,
            "DefaultValue": -1
          },
          {
            "value": "CostHeadId",
            "width": 50,
            "Type": "number",
            "IsVisible": false,
            "SNo": 6,
            "sticky": false,
            "left": 0,
            "Required": false,
            "PostData": true,
            "DefaultId": true,
            "DefaultValue": -1
          },
          {
            "value": "CostHeadSetDetailParticulars",
            "width": 390,
            "Type": "string",
            "IsVisible": true,
            "Label":"Particulars",
            "SNo": 3,
            "sticky": false,
            "Placeholder":"Enter Particulars",
            "left": 0,
            "Required": false,
            "PostData": true,
            "DefaultValue": ""
          },
          {
            "value": "undefined",
            "Type": "string",
            "IsVisible": false,
            "SNo": 7,
            "sticky": false,
            "DefaultValue": "",
            "left": 0,
            "Required": false,
            "PostData": true
          }
        ]
      },
      {
        "Name": "CostHeadSetCreatedOn",
        "Type": "string",
        "Required": false,
        "PostData": true,
        "ValidRegEx": "",
        "DefaultValue": "/Date(1709891940000)/"
      },
      {
        "Name": "CostHeadSetCreatedByName",
        "Type": "string",
        "Required": false,
        "PostData": true,
        "ValidRegEx": "",
        "DefaultValue": "ADMIN"
      },
      {
        "Name": "CostHeadSetModifiedOn",
        "Type": "string",
        "Required": false,
        "PostData": true,
        "ValidRegEx": "",
        "DefaultValue": "/Date(1709891940000)/"
      },
      {
        "Name": "CostHeadSetModifiedByName",
        "Type": "string",
        "Required": false,
        "PostData": true,
        "ValidRegEx": "",
        "DefaultValue": "ADMIN"
      },
      {
        "Name": "CostHeadSetStatus",
        "Type": "number",
        "Required": false,
        "PostData": true,
        "ValidRegEx": "",
        "DefaultValue": 1
      },
      {
        "Name": "CostHeadSetVersion",
        "Type": "number",
        "Required": false,
        "PostData": true,
        "ValidRegEx": "",
        "DefaultValue": 1
      }
    ]
    
  }