{
    "ObjectFields": [
        {
        "MCountCode":{
                    "PicklistUrl": "Count",
                    "PicklistDisplayText": "Code,Name",
                    "PicklistSearchFields": "Code,Name",
                    "Multiple": false,
                    "PicklistSelection": "Id",
                    "PlaceHolder":"Enter Code",
                    "SLno":1,
                    "Label":"Code*",
                    "Required":true,
                    "LabelWidth":55,
                    "PicklistTitle": "Code",
                    "Width": 160,
                    "AddNew": true,
                    "MaxLength": 10,
                    "ColumnWidth": "200,300",
                    "ColumnType": "string,string",
                    "isKeyField": true
                },
                "MCountName":{
                    "PicklistUrl": "Count",
                    "PicklistDisplayText": "Code,Name",
                    "PicklistSearchFields": "Code,Name",
                    "Multiple": false,
                    "PicklistSelection": "Id",
                    "PlaceHolder":"Enter Name",
                    "Label":"Name*",
                    "Required":true,
                    "PicklistTitle": "Name",
                    "Width": 360,
                    "AddNew": true,
                    "MaxLength": 35,
                    "ColumnWidth": "200,300",
                    "ColumnType": "string,string",
                    "isKeyField": true
                },
                "CategoryName":{
                    "PicklistUrl": "ITEMCATEGORY",
                    "PicklistDisplayText": "Code,Name",
                    "PicklistSearchFields": "Code,Name",
                    "Multiple": false,
                    "PicklistSelection": "Id",
                    "Required":true,
                    "PicklistTitle": "Name",
                    "LabelWidth":129,
                    "PlaceHolder":"Select Category",
                    "Label":"Category*",
                    "Width": 300,
                    "LinkId":"CategoryId",
                    "AddNew": false,
                    "MaxLength": 35,
                    "ColumnWidth": "200,300",
                    "ColumnType": "string,string"
                },
                "SubCategoryName":{
                    "PicklistUrl": "ITEMSUBCATEGORY",
                    "PicklistDisplayText": "Code,Name",
                    "PicklistSearchFields": "Code,Name",
                    "Multiple": false,
                    "PicklistSelection": "Id",
                    "Label":"Sub Category*",
                    "PlaceHolder":"Select Sub Category",
                    "Required":true,
                    "LabelWidth":129,
                    "PicklistTitle": "Name",
                    "Width": 300,
                    "LinkId":"SubCategoryId",
                    "AddNew": false,
                    "MaxLength": 35,
                    "ColumnWidth": "200,300",
                    "ColumnType": "string,string"
                },
                "FirstCountName":{
                    "PicklistUrl": "Count",
                    "PicklistDisplayText": "Code,Name",
                    "PicklistSearchFields": "Code,Name",
                    "Multiple": false,
                    "PicklistSelection": "Id",
                    "Required":true,
                    "PicklistTitle": "Name",
                    "PlaceHolder":"Select First Count",
                    "LabelWidth":129,
                    "Label":"First Count*",
                    "Width": 200,
                    "LinkId":"FirstCountId",
                    "AddNew": false,
                    "MaxLength": 35,
                    "ColumnWidth": "200,300",
                    "ColumnType": "string,string"
                },
                "SecondCountName":{
                    "PicklistUrl": "Count",
                    "PicklistDisplayText": "Code,Name",
                    "PicklistSearchFields": "Code,Name",
                    "Multiple": false,
                    "PicklistSelection": "Id",
                    "Label":"Second Count*",
                    "PlaceHolder":"Select Second Count",
                    "LabelWidth":129,
                    "Required":true,
                    "PicklistTitle": "Name",
                    "Width": 200,
                    "LinkId":"SecondCountId",
                    "AddNew": false,
                    "MaxLength": 35,
                    "ColumnWidth": "200,300",
                    "ColumnType": "string,string"
                },
                "ThirdCountName":{
                    "PicklistUrl": "Count",
                    "PicklistDisplayText": "Code,Name",
                    "PicklistSearchFields": "Code,Name",
                    "Multiple": false,
                    "PicklistSelection": "Id",
                    "PlaceHolder":"Select Third Count",
                    "LabelWidth":129,
                    "Required":true,
                    "PicklistTitle": "Name",
                    "Label":"Third Count*",
                    "Width": 200,
                    "LinkId":"ThirdCountId",
                    "AddNew": false,
                    "MaxLength": 35,
                    "ColumnWidth": "200,300",
                    "ColumnType": "string,string"
                }
        },
        {
            "Name": "MCountId",
            "Type": "number",
            "Required": true,
            "PostData": true,
            "ValidRegEx": "",
            "DefaultValue": 0,
            "Width": 100
        },
        {
            "Name": "MCountCode",
            "Type": "string",
            "Required": true,
            "PostData": true,
            "Label": "Code*",
            "ValidRegEx": "",
            "DefaultValue": "",
            "Width": 100
        },
        {
            "Name": "MCountName",
            "Type": "string",
            "Required": true,
            "PostData": true,
            "Label": "Name*",
            "ValidRegEx": "",
            "DefaultValue": "",
            "Width": 100
        },
        {
            "Name": "MCountType",
            "Type": "number",
            "Label": "Count Type*",
            "Placeholder": "",
            "Required": true,
            "LabelWidth":129,
            "ValidRegEx": "",
            "DefaultValue": "",
            "Width": 120,
            "PickLists": [
                {
                    "key": "",
                    "value": "Please Select"
                },
                {
                    "key": 0,
                    "value": "Single Ply"
                },
                {
                    "key": 1,
                    "value": "Double Ply"
                },
                {
                    "key": 2,
                    "value": "Triple Ply"
                }
            ]
        },
        {
            "Name": "CategoryId",
            "Type": "number",
            "Required": true,
            "PostData": true,
            "ValidRegEx": "",
            "DefaultValue": -1,
            "Width": 100
        },
        {
            "Name": "CategoryName",
            "Type": "string",
            "Required": true,
            "PostData": false,
            "Label": "Category*",
            "LabelWidth":129,
            "ValidRegEx": "",
            "DefaultValue": "",
            "Width": 100
        },
        {
            "Name": "SubCategoryId",
            "Type": "number",
            "Required": false,
            "PostData": true,
            "ValidRegEx": "",
            "DefaultValue": -1,
            "Width": 100
        },
        {
            "Name": "SubCategoryName",
            "Type": "string",
            "Required": true,
            "PostData": false,
            "Label": "Sub Category*",
            "ValidRegEx": "",
            "LabelWidth":129,
            "DefaultValue": "",
            "Width": 100
        },
        {
            "Name": "MCountSingleCount",
            "Type": "number",
            "Required": true,
            "Placeholder":"Enter Single Count",
            "Label":"Single Count*",
            "PostData":true,
            "Mask":"0000000000000.",
            "LabelWidth":129,
            "MaxLength":14,
            "ValidRegEx": "",
            "DefaultValue": "",
            "Width": 150
        },
        {
            "Name": "MCountIsTwist",
            "Type": "number",
            "Required": false,
            "Label": "Is Twist",
            "LabelWidth":129,
            "Placeholder": "",
            "ValidRegEx": "",
            "DefaultValue": 1,
            "width": 100
        },
        {
            "Name": "MCountLengthPerKg",
            "Type": "number",
            "Required": true,
            "Placeholder":"Enter  Length Per Meter",
            "Label":"Length Per Meter*",
            "LabelWidth":127,
            "PostData":true,
            "Mask":"0000000000000.",
            "MaxLength":14,
            "ValidRegEx": "",
            "DefaultValue": "",
            "Width": 170
        },
        {
            "Name": "MCountWeightPerMeter",
            "Type": "number",
            "Required": true,
            "Placeholder":"Enter  Length Per Kg",
            "Label":"Weight Per Kg*",
            "Mask":"0000000000000.",
            "LabelWidth":129,
            "PostData":true,
            "MaxLength":14,
            "ValidRegEx": "",
            "DefaultValue": "",
            "Width": 150
        },
        {
            "Name": "ItemId",
            "Type": "number",
            "Required": false,
            "PostData": true,
            "ValidRegEx": "",
            "DefaultValue": -1,
            "Width": 100
        },
        {
            "Name": "FirstCountId",
            "Type": "number",
            "Required": false,
            "PostData": true,
            "ValidRegEx": "",
            "DefaultValue": -1,
            "Width": 100
        },
        {
            "Name": "FirstCountName",
            "Type": "string",
            "Required": true,
            "PostData": false,
            "Label": "First Count*",
            "ValidRegEx": "",
            "DefaultValue": "",
            "Width": 100
        },
        {
            "Name": "SecondCountId",
            "Type": "number",
            "Required": false,
            "PostData": true,
            "ValidRegEx": "",
            "DefaultValue": -1,
            "Width": 100
        },
        {
            "Name": "SecondCountName",
            "Type": "string",
            "Required": true,
            "PostData": false,
            "Label": "Second Count*",
            "ValidRegEx": "",
            "DefaultValue": "",
            "Width": 100
        },
        {
            "Name": "ThirdCountId",
            "Type": "number",
            "Required": false,
            "PostData": true,
            "ValidRegEx": "",
            "DefaultValue": -1,
            "Width": 100
        },
        {
            "Name": "ThirdCountName",
            "Type": "string",
            "Required": true,
            "PostData": false,
            "Label": "Third Count*",
            "ValidRegEx": "",
            "DefaultValue": "",
            "Width": 100
        },
        {
            "Name": "MCountStatus",
            "Type": "number",
            "Required": false,
            "PostData":true,
            "ValidRegEx": "",
            "DefaultValue": 1,
            "width":100
        },
        {
            "Name": "MCountVersion",
            "Type": "number",
            "Required": false,
            "ValidRegEx": "",
            "DefaultValue": 1,
            "width":100
        }
    ]
}