{
    "ObjectFields": [
        {
            "DepartmentCode":{
                "PicklistUrl": "Department",
                "PicklistDisplayText": "Code,Name",
                "PicklistSearchFields": "Code,Name",
                "Multiple": false,
                "PicklistSelection": "Id",
                "PicklistTitle": "Name",
                "Label": "Department Code*",
                "PlaceHolder":"Enter Code",
                "Width": 160,
                "AddNew": true,
                "SLno":1,
                "MaxLength": 10,
                "ColumnWidth": "150,400",
                "ColumnType": "string,string",
                "isKeyField":true 
            },
            "DepartmentName":{
                "PicklistUrl": "Department",
                "PicklistDisplayText": "Code,Name",
                "PicklistSearchFields": "Code,Name",
                "Multiple": false,
                "PicklistSelection": "Id",
                "PicklistTitle": "Name",
                "Label": "Department Name*",
                "PlaceHolder":"Enter Name",
                "Width": 360,
                "AddNew": true,
                "MaxLength": 35,
                "ColumnWidth": "200,400",
                "ColumnType": "string,string",
                "isKeyField":true 
            },
            "ProcessName":{
                "PicklistUrl": "Process",
                "PicklistDisplayText": "Code,Name",
                "PicklistSearchFields": "Code,Name",
                "Multiple": false,
                "PicklistSelection": "Id",
                "PicklistTitle": "Name",
                "Label": "Process*",
                "PlaceHolder":"Select Process",
                "Width": 360,
                "LabelWidth":193,
                "AddNew": false,
                "MaxLength": 35,
                "ColumnWidth": "200,300",
                "ColumnType": "string,string",
                "LinkId":"ProcessId"
                
            },
            "CalendarName":{
                "PicklistUrl": "Calendar",
                "PicklistDisplayText": "Code,Name",
                "PicklistSearchFields": "Code,Name",
                "Multiple": false,
                "PicklistSelection": "Id",
                "PicklistTitle": "Name",
                "Label": "Calendar*",
                "PlaceHolder":"Select Calendar",
                "Width": 360,
                "LabelWidth":193,
                "AddNew": false,
                "MaxLength": 20,
                "ColumnWidth": "200,300",
                "ColumnType": "string,string",
                "LinkId":"CalendarId"
                
            },
            "DepartmentHeadName":{
                "PicklistUrl": "EmployeeMaster",
                "PicklistDisplayText": "Code,Name",
                "PicklistSearchFields": "Code,Name",
                "Multiple": false,
                "PicklistSelection": "Id",
                "PicklistTitle": "Name",
                "Label": "Department Head ",
                "LinkId":"DepartmentHeadId",
                "PlaceHolder":"Select Department Head",
                "Width": 360,
                "LabelWidth":193,
                "AddNew": false,
                "MaxLength": 20,
                "ColumnWidth": "200,400",
                "ColumnType": "string,string"
            },
            "DepartmentApplicableOUNames":{
                "PicklistUrl": "OrgUnit",
                "PicklistDisplayText": "Name",
                "PicklistSearchFields": "Code,Name",
                "Multiple": true,
                "PicklistSelection": "Id",
                "PicklistTitle": "Name",
                "Label": "Applicable Organization Unit",
                "Width": 360,
                "LabelWidth":190,
                "PlaceHolder":"Select Applicable Organization Unit",
                "AddNew": false,
                "MaxLength": 20,
                "ColumnWidth": "400",
                "ColumnType": "string,string",
                "LinkId":"DepartmentApplicableOUIds"
            }
        },
        {
            "Name": "DepartmentId",
            "Type": "number",
            "Required": true,
            "ValidRegEx": "",
            "PostData": true,
            "DefaultValue": 0
        },
        {
            "Name": "DepartmentCode",
            "Type": "string",
            "Label": "Code*",
            "Required": true,
            "ValidRegEx": "",
            "PostData": true,
            "DefaultValue": ""
        },
        {
            "Name": "DepartmentName",
            "Type": "string",
            "Label": "Name*",
            "Required": true,
            "ValidRegEx": "",
            "PostData": true,
            "DefaultValue": ""
        },
        {
            "Name": "DepartmentIsProduction",
            "Type": "number",
            "Label": "Production",
            "Required": true,
            "PostData": true,
            "ValidRegEx": "",
            "DefaultValue": 1,
            "LabelWidth":193
        },
        {
            "Name": "ProcessName",
            "Type": "string",
            "Label": "Process*",
            "Required": true,
            "ValidRegEx": "",
            "PostData": true,
            "DefaultValue": ""
           
        },
        {
            "Name": "CalendarName",
            "Type": "string",
            "Label": "Calendar* ",
            "Required": true,
            "ValidRegEx": "",
            "PostData": true,
            "DefaultValue": ""
        },
        {
            "Name": "DepartmentApplicableOUNames",
            "Type": "string",
            "Label": "Applicable Organization Unit ",
            "Placeholder":"Select Applicable OrganizationUnit",
            "Required": false,
            "ValidRegEx": "",
            "PostData": true,
            "DefaultValue": "NONE"
          
        }
        ,
        {
            "Name": "DepartmentHeadName",
            "Type": "string",
            "Label": "Department Head ",
            "Required": false,
            "ValidRegEx": "",
            "PostData": false,
            "DefaultValue": ""
        },
        {
            "Name": "DepartmentHeadId",
            "Type": "number",
            "Label": "",
            "Required": false,
            "ValidRegEx": "",
            "PostData": true,
            "DefaultValue": -1
        },
        {
            "Name": "ProcessId",
            "Type": "number",
            "Required": false,
            "PostData": true,
            "ValidRegEx": "",         
            "DefaultValue": -1
           
        },
        {
            "Name": "CalendarId",
            "Type": "number",
            "DefaultValue": -1,   
            "Required": false,
            "PostData": true,
            "ValidRegEx": ""
        },
        {
            "Name": "DepartmentStatus",
            "Type": "number",
            "Tooltip": "",
            "Required": false,
            "PostData": true,
            "ValidRegEx": "",
            "DefaultValue": 1
        },
        {
            "Name": "DepartmentVersion",
            "Type": "number",
            "Tooltip": "",
            "Placeholder": "",
            "Required": false,
            "PostData": true,
            "ValidRegEx": "",
            "DefaultValue": 1
        },
        {
            "Name": "DepartmentCreatedByName",
            "Type": "string",
            "Required": false,
            "PostData": true,
            "ValidRegEx": "",
            "DefaultValue": "ADMIN"
            
        },
        {
            "Name": "DepartmentCreatedOn",
            "Type": "string",
            "Required": false,
            "PostData": true,
            "ValidRegEx": "",
            "DefaultValue": "/Date(1396137600000)/"
        },
        {
            "Name": "DepartmentModifiedByName",
            "Type": "string",
            "Required": false,
            "PostData": true,
            "ValidRegEx": "",
            "DefaultValue": "ADMIN"
        },
        {
            "Name": "DepartmentModifiedOn",
            "Type": "string",
            "Required": false,
            "PostData": true,
            "ValidRegEx": "",
            "DefaultValue": "/Date(1708683300000)/"
        },
        {
            "Name": "DepartmentApplicableOUIds",
            "Type": "number",
            "Required": false,
            "PostData": true,
            "ValidRegEx": "",
            "DefaultValue": -1
        }
    ]
}