{
    "ObjectFields": [
        {
            "DeviceTypeCode": {
                "SLno":1,
                "PicklistUrl": "DeviceType",
                "PicklistDisplayText": "Code",
                "PicklistSearchFields": "Code",
                "Multiple": false,
                "PicklistSelection": "Id",
                "PicklistTitle": "Code",
                "PlaceHolder": "Enter Code",
                "Label": "Code*",
                "Width": 160,
                "AddNew": true,
                "MaxLength": 10,
                "ColumnWidth": "200",
                "ColumnType": "string",
                "isKeyField": true
               
            },
            "DeviceTypeName": {
                "PicklistUrl": "DeviceType",
                "PicklistDisplayText": "Name",
                "PicklistSearchFields": "Name",
                "Multiple": false,
                "PicklistSelection": "Id",
                "PicklistTitle": "Name",
                "PlaceHolder": "Enter Name",
                "Label": "Name*",
                "Width": 360,
                "AddNew": true,
                "MaxLength": 35,
                "ColumnWidth": "200",
                "ColumnType": "string",
                "isKeyField": true
            }
        },
        {
            "Name": "DeviceTypeId",
            "Type": "number",
            "Required": false,
            "ValidRegEx": "",
            "PostData": true,
            "DefaultValue": 0
        },
        {
            "Name": "DeviceTypeCode",
            "Type": "string",
            "Label": "Code*",
            "Required": true,
            "ValidRegEx": "",
            "PostData": true,
            "DefaultValue": ""
        },
        {
            "Name": "DeviceTypeName",
            "Type": "string",
            "Label": "Name*",
            "Required": true,
            "ValidRegEx": "",
            "PostData": true,
            "DefaultValue": ""
        },
        {
            "Name": "DeviceTypeStatus",
            "Type": "number",
            "Required": false,
            "PostData": true,
            "ValidRegEx": "",
            "DefaultValue": 1
        },
        {
            "Name": "DeviceTypeVersion",
            "Type": "number",
            "Required": false,
            "PostData": true,
            "ValidRegEx": "",
            "DefaultValue": 1
        }
    ]
}