{
    "ObjectFields": [
{
    "FileName": {
        "PicklistUrl": "File",
        "PicklistDisplayText": "Name",
        "PicklistSearchFields": "Name",
        "Multiple": false,
        "PicklistSelection": "Id",
        "PicklistTitle": "Name",
        "Label": "File*",
        "PlaceHolder":"Select File",
        "Width": 360,
        "SLno":1,
        "AddNew": false,
        "isKeyField":true,
        "ColumnWidth": "200",
        "ColumnType": "string,string"
      },
      "ReportName": {
        "PicklistUrl": "Report",
        "PicklistDisplayText": "Name",
        "PicklistSearchFields": "Name",
        "Multiple": false,
        "PicklistSelection": "Id",
        "PicklistTitle": "Name",
        "Label": "Report*",
        "Width": 360,
        
        "LabelWidth":100,
        "AddNew": false,
        "PlaceHolder":"Select Report",
        "ColumnWidth": "200",
        "ColumnType": "string,string",
        "LinkId":"ReportId"
      },
      "TenantName": {
        "PicklistUrl": "Client",
        "PicklistDisplayText": "Name",
        "PicklistSearchFields": "Name",
        "Multiple": false,
        "PicklistSelection": "Id",
        "PicklistTitle": "Name",
        "Label": "Client*",
        "Width": 360,
        "LabelWidth":100,
        "PlaceHolder":"Enter Client",
        "AddNew": false,
        "ColumnWidth": "200",
        "ColumnType": "string,string",
        "LinkId":"TenantId"
      },
      "WebServiceName": {
        "PicklistUrl": "WebService",
        "PicklistDisplayText": "Name",
        "PicklistSearchFields": "Name",
        "Multiple": false,
        "LabelWidth":595,
        "PicklistSelection": "Id",
        "PicklistTitle": "Name",
        "Label": "Web Service*",
        "PlaceHolder":"Select WebService",
        "Width": 360,
        "AddNew": false,
        "ColumnWidth": "200",
        "ColumnType": "string,string",
        "LinkId":"WebServiceId"
      }
},
{
    "Name": "FileId",
    "Type": "number",
    "Required": true,
    "ValidRegEx": "",
    "DefaultValue": 0,
    "width":"400px"

  },

 
  { 
    "Name": "FileName",
    "Type": "string",
    "Required": true,
    "ValidRegEx": "",
    "DefaultValue": "",
    "width":"400px",
    "Label": "File*",
    "PostData":true
  },
  {
    "Name": "TenantName",
    "Type": "string",
    "Required": true,
    "ValidRegEx": "",
    "DefaultValue": "",
    "PostData": true,
    "Label": "Client*",
    "width": "400px"
  },
  {
    "Name": "WebServiceName",
    "Type": "string",
    "Required": true,
    "ValidRegEx": "",
    "DefaultValue": "",
    "Label": "Web Service Name*",
    "PostData": true,
    "width": "400px"
  },
  {
    "Name": "ReportName",
    "Type": "string",
    "Required": true,
    "ValidRegEx": "",
    "DefaultValue": "",
    "PostData": true,
    "Label": "Report *",
    "width": "400px"
  },


  {
    "Name": "FileLocation",
    "Type": "string",
    "Required": true,
    "ValidRegEx": "",
    "DefaultValue": "",
    "width":"500px",
    "LabelWidth":100,
    "PostData":true,
    "Label":"File Location* ",
    "MaxLEngth":100,
    "Placeholder":"File Location"
  },

  {
    "Name": "FileRemarks",
    "Type": "string",
    "Required": false,
    "LabelWidth":100,
    "ValidRegEx": "",
    "DefaultValue": "",
    "width":"500px",
    "PostData":true,
    "Label":"Remarks",
    "MaxLEngth":200,
    "Placeholder":"Enter The Remarks"
  },

  {
    "Name": "FileSortOrder",
    "Type": "string",
    "Required": true,
    "ValidRegEx": "",
    "DefaultValue": "9999",
    "width":"200px",
    "PostData":true,
    "Label":"Sort Order*",
    "MaxLEngth":4,
    "LabelWidth":100,
    "Placeholder":""
  },
  {
    "Name": "FileType",
    "Type": "number",
    "Label": "Type*",
    "DefaultValue": 0,
    "Required": true,
    "Width":100,
    "LabelWidth":100,
    "ValidRegEx": "",
    "PickLists": [
        {
            "key": 0,
            "value": "File"
        },
        {
            "key": 1,
            "value": "Template"
        },
        {
            "key": 2,
            "value": "Report Template"
        }
    ]
},
{
    "Name": "FileCreatedOn",
    "Type": "string",
    "Required": false,
    "ValidRegEx": "",
    "DefaultValue": "/Date(1386686880000)/",
    "width":"400px",
    "PostData":true
  },
  {
    "Name": "FileModifiedOn",
    "Type": "string",
    "Required": false,
    "ValidRegEx": "",
    "DefaultValue":  "/Date(1710934320000)/",
    "width":"400px",
    "PostData":true
  },
  {
    "Name": "FileModifiedByName",
    "Type": "string",
    "Required": false,
    "ValidRegEx": "",
    "DefaultValue": "DEMO",
    "width":"400px",
    "PostData":true
  },
  {
    "Name": "FileCreatedByName",
    "Type": "string",
    "Required": false,
    "ValidRegEx": "",
    "DefaultValue": "DEMO",
    "width":"400px",
    "PostData":true
  },
  {
    "Name": "FileStatus",
    "Type": "number",
    "Required": false,
    "ValidRegEx": "",
    "DefaultValue": 1,
    "width":"100px",
    "PostData":true
    
  },
  {
    "Name": "FileVersion",
    "Type": "number",
    "Required": false,
    "ValidRegEx": "",
    "DefaultValue": 1,
    "width":"100px",
    "PostData":true
    
  },
  {
    "Name": "ReportId",
    "Type": "string",
    "Required": false,
    "ValidRegEx": "",
    "DefaultValue": -1,
    "width":"400px",
    "PostData":true

  },
  {
    "Name": "TenantId",
    "Type": "string",
    "Required": false,
    "ValidRegEx": "",
    "DefaultValue": -1,
    "width":"400px",
    "PostData":true

  },
  {
    "Name": "WebServiceId",
    "Type": "string",
    "Required": false,
    "ValidRegEx": "",
    "DefaultValue": -1,
    "width":"400px",
    "PostData":true

  }
    ]

}