{
    "ObjectFields": [
        {
            "InspectionAreaArea": {
                "PicklistUrl": "InspectionArea",
                "PicklistDisplayText": "Area",
                "PicklistSearchFields": "Area",
                "Multiple": false,
                "PicklistSelection": "Id",
                "PicklistTitle": "Area",
                "PlaceHolder":"Enter Inspection Area",
                "Label": "Inspection Area*",
                "Width": 360,
                "AddNew": true,
                "MaxLength": 35,
                "SLno":1,
                "ColumnWidth": "200,200",
                "ColumnType": "string,string",
                "LinkId":"InspectionAreaId",
                "isKeyField":true
            },
            "InspectionAreaType": {
                "PicklistUrl": "GCMPicklist",
                "PicklistDisplayText": "Code,Name",
                "PicklistSearchFields": "Name",
                "Multiple": false,
                "PicklistSelection": "Id",
                "PicklistTitle": "Name",
                "Label": "Inspection Type*",
                "PlaceHolder":"Select Inspection Type",
                "Width": 360,
                "AddNew": false,
                "MaxLength": 10,
                "LabelWidth":120,
                "ColumnWidth": "200,300",
                "ColumnType": "string,string",
                "PicklistCriteria":"InspectionAreaType"
               
            },
            "WorkCenterName": {
                "PicklistUrl": "WorkCenter",
                "PicklistDisplayText": "Name",
                "PicklistSearchFields": "Name",
                "Multiple": false,
                "PicklistSelection": "Id",
                "PicklistTitle": "Name",
                "Label": "Work Center*",
                "PlaceHolder":"Select Work Center ",
                "Width": 360,
                "AddNew": false,
                "LabelWidth":120,
                "MaxLength": 35,
                "ColumnWidth": "200",
                "ColumnType": "string,string",
                "LinkId": "WorkCenterId"
            }
        },
        {
            "Name": "InspectionAreaId",
            "Type": "number",
            "Required": false,
            "ValidRegEx": "",
            "PostData": true,
            "DefaultValue": 0
        },
        {
            "Name": "InspectionAreaArea",
            "Type": "string",
            "Label": "Inspection Area*",
            "Required": true,
            "LinkId":"InspectionAreaId",
            "ValidRegEx": "",
            "PostData": true,
            "DefaultValue": ""
        },
        {
            "Name": "InspectionAreaType",
            "Type": "number",
            "Label": "Inspection Type*",
            "Required": true,
            "ValidRegEx": "",
            "PostData": true,
            "DefaultValue": ""
        },
        {
            "Name": "WorkCenterName",
            "Type": "string",
            "Label": "Work Center*",
            "Required": true,
            "ValidRegEx": "",
            "PostData": true,
            "DefaultValue": ""
        },
        {
            "Name": "InspectionAreaRemarks",
            "Type": "string",
            "Label": "Remarks",
            "Required": false,
            "Placeholder":"Enter Remarks ",
            "ValidRegEx": "",
            "MaxLength":200,
            "PostData": true,
            "LabelWidth":120,
            "Width": 360,
            "DefaultValue": ""
        },
        {
            "Name": "InspectionAreaSortOrder",
            "Type": "number",
            "Label": "Sort Order*",
            "Placeholder":"Enter Sort Order",
            "Required": true,
            "ValidRegEx": "",
            "PostData": true,
            "DefaultValue": 9999,
            "LabelWidth":120,
            "Width": 120,
            "MaxLength":4
        },
        {
            "Name": "WorkCenterId",
            "Type": "number",
            "DefaultValue": -1,
            "Placeholder": "",
            "Required": false,
            "PostData": true,
            "ValidRegEx": ""
        },
        {
            "Name": "InspectionAreaCreatedOn",
            "Type": "string",
            "Required": false,
            "PostData": true,
            "ValidRegEx": "",
            "DefaultValue": "/Date(1709823600000)/"
        },
        {
            "Name": "InspectionAreaModifiedOn",
            "Type": "string",
            "Required": false,
            "PostData": true,
            "ValidRegEx": "",
            "DefaultValue": "/Date(1709825940000)/"
        },
       
        {
            "Name": "InspectionAreaStatus",
            "Type": "number",
            "Required": false,
            "PostData": true,
            "ValidRegEx": "",
            "DefaultValue": 1
        },
        {
            "Name": "InspectionAreaCreatedByName",
            "Type": "string",
            "Required": false,
            "PostData": true,
            "ValidRegEx": "",
            "DefaultValue":"ADMIN"
        },
        {
            "Name": "InspectionAreaModifiedByName",
            "Type": "string",
            "Required": false,
            "PostData": true,
            "ValidRegEx": "",
            "DefaultValue": "ADMIN"
        },
        {
            "Name": "InspectionAreaVersion",
            "Type": "number",
            "Required": false,
            "PostData": true,
            "ValidRegEx": "",
            "DefaultValue": 1
        }
    ]
}