{
    "ObjectFields": [
        {
            "JobdefineName": {
                "PicklistUrl": "JobDefine",
                "PicklistDisplayText": "JobdefinePicklistName",
                "PicklistSearchFields": "Name",
                "Multiple": false,
                "PicklistSelection": "JobdefinePicklistId",
                "PicklistTitle": "JobdefinePicklistName",
                "Label": " Name*",
                "Width": 360,
                "AddNew": true,
                "MaxLength": 50,
                "SLno":1,
                "ColumnWidth": "400",
                "PlaceHolder":"Enter Name ",
                "isKeyField":true,
                "ColumnType": "string"
            },
            "SchedulerName": {
                "PicklistUrl": "Scheduler",
                "PicklistDisplayText": "Name",
                "PicklistSearchFields": "Name",
                "Multiple": false,
                "PicklistSelection": "Id",
                "PicklistTitle": "Name",
                "Label": " Scheduler*",
                "Width": 360,
                "AddNew": false,
                "MaxLength": 35,
                "ColumnWidth": "200",
                "LabelWidth":110,
                "PlaceHolder":"Select Scheduler",
                "ColumnType": "string",
                "LinkId": "SchedulerId"
            },
            "WebServiceName": {
                "PicklistUrl": "WebService",
                "PicklistDisplayText": "Name",
                "PicklistSearchFields": "Name",
                "Multiple": false,
                "PicklistSelection": "Id",
                "PicklistTitle": "Name",
                "Label": "Web Service*",
                "Width": 360,
                "AddNew": false,
                "LabelWidth":122,
                "PlaceHolder":"Select Web Service",
                "MaxLength": 35,
                "ColumnWidth": "400",
                "ColumnType": "string",
                "LinkId": "WebServiceId"
            },
            "CriteriaConfigName": {
                "PicklistUrl": "CerteriaConfig",
                "PicklistDisplayText": "Name",
                "PicklistSearchFields": "Name",
                "Multiple": false,
                "PicklistSelection": "Id",
                "PicklistTitle": "Name",
                "Label": "Criteria Config*",
                "PlaceHolder":"Select Criteria Config",
                "Width": 360,
                "AddNew": false,
                "MaxLength": 35,
                "ColumnWidth": "400",
                "LabelWidth":122,
                "ColumnType": "string",
                "LinkId": "CriteriaConfigId"
            },
            "MenuName": {
                "PicklistUrl": "Menu",
                "PicklistDisplayText": "Name",
                "PicklistSearchFields": "Name",
                "Multiple": false,
                "PicklistSelection": "Id",
                "PicklistTitle": "Name",
                "Label": " Menu*",
                "PlaceHolder":"Select Menu",
                "Width": 360,
                "AddNew": true,
                "MaxLength": 10,
                "ColumnWidth": "300",
                "LabelWidth":100,
                "ColumnType": "string",
                "LinkId": "MenuId",
                "PicklistCriteria":"JobDefineMenu"
            },
            "ModuleName": {
                "PicklistUrl": "Module",
                "PicklistDisplayText": "Name",
                "PicklistSearchFields": "Name",
                "Multiple": false,
                "PicklistSelection": "Id",
                "PicklistTitle": "Name",
                "Label": " Module*",
                "PlaceHolder":"Select Module",
                "Width": 360,
                "AddNew": true,
                "MaxLength": 10,
                "LabelWidth":110,
                "ColumnWidth": "200",
                "ColumnType": "string",
                "LinkId": "ModuleId"
            }
        },
        {
            "Name": "JobdefineId",
            "Type": "number",
            "Required": true,
            "ValidRegEx": "",
            "PostData": true,
            "DefaultValue": 0
        },
        {
            "Name": "JobdefineName",
            "Type": "string",
            "Label": " Jobdefine ",
            "Required": true,
            "ValidRegEx": "",
            "PostData": true,
            "DefaultValue": ""
        },
        {
            "Name": "CriteriaConfigName",
            "Type": "string",
            "Label": " Criteria Config ",
            "Required": true,
            "ValidRegEx": "",
            "PostData": true,
            "DefaultValue": ""
        },
        {
            "Name": "SchedulerName",
            "Type": "string",
            "Label": " Scheduler ",
            "Required": true,
            "ValidRegEx": "",
            "PostData": true,
            "DefaultValue": ""
        },
        {
            "Name": "JobdefineType",
            "Type": "number",
            "Label": "Type*",
            "Required": true,
            "PostData": true,
            "ValidRegEx": "",
            "LabelWidth":110,
            "DefaultValue": 0,
            "Width": 160,
            "PickLists": [
                {
                    "key": 0,
                    "value": "Web Service"
                },
                {
                    "key": 1,
                    "value": "Menu"
                }
            ]
        },
        {
            "Name": "WebServiceName",
            "Type": "string",
            "Label": "WebService ",
            "Required": true,
            "ValidRegEx": "",
            "PostData": true,
            "DefaultValue": ""
        },
        {
            "Name": "MenuName",
            "Type": "string",
            "Label": " Menu",
            "Required": true,
            "ValidRegEx": "",
            "PostData": true,
            "DefaultValue": ""
        },
        {
            "Name": "ModuleName",
            "Type": "string",
            "Label": " Module",
            "Required": true,
            "ValidRegEx": "",
            "PostData": true,
            "DefaultValue": "NONE"
        },
        {
            "Name": "JobdefineLastRunTime",
            "Type": "string",
            "Label": "Last Run*",
            "LabelWidth":122,
            "Required": true,
            "ValidRegEx": "",
            "PostData": true,
            "DefaultValue": ""
        },
        {
            "Name": "JobdefineRemarks",
            "Type": "string",
            "Required": false,
            "LabelWidth":110,
            "Label": "Remarks",
            "Placeholder": "Enter Remarks",
            "MaxLength":200,
            "Width":360,
            "PostData": true,
            "ValidRegEx": "",
            "DefaultValue": ""
        },
        {
            "Name": "JobdefineUriTemplateValue",
            "Type": "string",
            "Required": false,
            "Label": "ParameterValues",
            "Placeholder": "Enter ParameterValues",
            "PostData": true,
            "LabelWidth":110,
            "Width":360,
            "ValidRegEx": "",
            "DefaultValue": ""
        },
        {
            "Name": "JobdefineStatus",
            "Type": "number",
            "Label": "IsActive",
            "Tooltip": "",
            "Required": false,
            "PostData": true,
            "ValidRegEx": "",
            "LabelWidth":122,
            "DefaultValue": 0
        },
        {
            "Name": "JobdefineCreatedOn",
            "Type": "string",
            "Required": false,
            "PostData": true,
            "ValidRegEx": "",
            "DefaultValue": "/Date(1488362760000)/"
        },
        {
            "Name": "JobdefineModifiedOn",
            "Type": "string",
            "Required": false,
            "PostData": true,
            "ValidRegEx": "",
            "DefaultValue": "/Date(1708959540000)/"
        },
        {
            "Name": "JobdefineModifiedByName",
            "Type": "string",
            "Required": false,
            "PostData": true,
            "ValidRegEx": "",
            "DefaultValue": "ADMIN"
        },
        {
            "Name": "JobdefineCreatedByName",
            "Type": "string",
            "Required": false,
            "PostData": true,
            "ValidRegEx": "",
            "DefaultValue": "ADMIN"
        },
        {
            "Name": "JobdefineSourceType",
            "Type": "number",
            "Required": false,
            "PostData": true,
            "ValidRegEx": "",
            "DefaultValue": 5
        },
        {
            "Name": "SchedulerId",
            "Type": "number",
            "Required": false,
            "PostData": true,
            "ValidRegEx": "",
            "DefaultValue": "-1"
        },
        {
            "Name": "WebServiceId",
            "Type": "number",
            "Required": false,
            "PostData": true,
            "ValidRegEx": "",
            "DefaultValue": -1
        },
        {
            "Name": "CriteriaConfigId",
            "Type": "number",
            "Required": false,
            "PostData": true,
            "ValidRegEx": "",
            "DefaultValue": -1
        },
        {
            "Name": "MenuId",
            "Type": "number",
            "Required": false,
            "PostData": true,
            "ValidRegEx": "",
            "DefaultValue": -1
        },
        {
            "Name": "ModuleId",
            "Type": "number",
            "Required": false,
            "PostData": true,
            "ValidRegEx": "",
            "DefaultValue": -1
        },
        {
            "Name": "LastRuntime",
            "Type": "number",
            "Label": "Last Run Time*",
            "Placeholder": "",
            "Required": true,
            "PostData": false,
            "LabelWidth":122,
            "ValidRegEx": "",
            "DefaultValue": ""
        }
    ]
}