{
  "ObjectFields": [
    {
      "MaterialGroupCode": {
        "PicklistUrl": "MaterialGroup",
        "PicklistDisplayText": "Code,Name",
        "PicklistSearchFields": "Code,Name",
        "SLno":1,
        "Multiple": false,
        "PlaceHolder": "Enter Code",
        "PicklistSelection": "Id",
        "PicklistTitle": "Code",
        "Label": "Code*",
        "Width": 160,
        "AddNew": true,
        "MaxLength": 10,
        "ColumnWidth": "200",
        "ColumnType": "string,string",
        "isKeyField": true
      },
      "MaterialGroupName": {
        "PicklistUrl": "MaterialGroup",
        "PicklistDisplayText": "Code,Name",
        "PicklistSearchFields": "Code,Name",
        "Multiple": false,
        "PlaceHolder": "Enter Name",
        "PicklistSelection": "Id",
        "PicklistTitle": "Name",
        "Label": "Name*",
        "Width": 360,
        "AddNew": true,
        "MaxLength": 35,
        "ColumnWidth": "200",
        "ColumnType": "string,string",
        "isKeyField": true
      }
    },
    {
      "Name": "MaterialGroupId",
      "Type": "number",
      "Required": true,
      "PostData": true,
      "ValidRegEx": "",
      "DefaultValue": 0
    },
    {
      "Name": "MaterialGroupCode",
      "Type": "string",
      "Required": true,
      "ValidRegEx": "",
      "DefaultValue": "",
      "PostData": true,
      "width": 300,
      "Label": "Code*"
    },
    {
      "Name": "MaterialGroupName",
      "Type": "string",
      "Required": true,
      "ValidRegEx": "",
      "DefaultValue": "",
      "PostData": true,
      "width": 300,
      "Label": "Name*"
    },
    {
      "Name": "MaterialGroupCreatedOn",
      "Type": "string",
      "Required": false,
      "PostData": true,
      "ValidRegEx": "",
      "DefaultValue": "/Date(1707408420000)/"
    },
    {
      "Name": "MaterialGroupModifiedOn",
      "Type": "string",
      "Required": false,
      "PostData": true,
      "ValidRegEx": "",
      "DefaultValue": "/Date(1707408420000)/"
    },
    {
      "Name": "MaterialGroupModifiedByName",
      "Type": "string",
      "Required": false,
      "PostData": true,
      "ValidRegEx": "",
      "DefaultValue": "ADMIN"
    },
    {
      "Name": "MaterialGroupCreatedByName",
      "Type": "string",
      "Required": false,
      "PostData": true,
      "ValidRegEx": "",
      "DefaultValue": "ADMIN"
    },
    {
      "Name": "MaterialGroupStatus",
      "Type": "number",
      "Required": false,
      "ValidRegEx": "",
      "PostData": true,
      "DefaultValue": 1
    },
    {
      "Name": "MaterialGroupVersion",
      "Type": "number",
      "Required": false,
      "PostData": true,
      "ValidRegEx": "",
      "DefaultValue": 2
    }
  ]
}