{
    "ObjectFields": [
        {
            "MRPCode": {
                "PicklistUrl": "MRPMaster",
                "PicklistDisplayText": "Code,Name",
                "PicklistSearchFields": "Code",
                "Multiple": false,
                "PicklistSelection": "Id",
                "PicklistTitle": "Code",
                "Label": "Code*",
                "Width": 200,
                "AddNew": true,
                "MaxLength": 20,
                "ColumnWidth": "150,250",
                "ColumnType": "string,string",
                "isKeyField":true
            },
            "MRPName": {
                "PicklistUrl": "MRPMaster",
                "PicklistDisplayText": "Code,Name",
                "PicklistSearchFields": "Name",
                "Multiple": false,
                "PicklistSelection": "Id",
                "PicklistTitle": "Name",
                "Label": "Name*",
                "Width": 200,
                "AddNew": true,
                "MaxLength": 20,
                "ColumnWidth": "150,250",
                "ColumnType": "string,string",
                "isKeyField":true
            },
            "MasterScheduleName": {
                "PicklistUrl": "MasterSchedule",
                "PicklistDisplayText": "Code,Name",
                "PicklistSearchFields": "Name",
                "Multiple": false,
                "PicklistSelection": "Id",
                "PicklistTitle": "Name",
                "Label": "Master Schedule*",
                "Width": 200,
                "AddNew": true,
                "MaxLength": 20,
                "ColumnWidth": "150,250",
                "ColumnType": "string,string",
                "LinkId": "MasterScheduleId"
            },
            "OUName": {
                "PicklistUrl": "OrganizationUnit",
                "PicklistDisplayText": "Code,Name",
                "PicklistSearchFields": "Name",
                "Multiple": false,
                "PicklistSelection": "Id",
                "PicklistTitle": "Name",
                "Label": "Organization Unit",
                "Width": 200,
                "AddNew": false,
                "MaxLength": 20,
                "ColumnWidth": "150,250",
                "ColumnType": "string,string",
                "LinkId": "OUId"
            },
            "OUGroupName": {
                "PicklistUrl": "OrganizationGroup",
                "PicklistDisplayText": "Code,Name",
                "PicklistSearchFields": "Name",
                "Multiple": false,
                "PicklistSelection": "Id",
                "PicklistTitle": "Name",
                "Label": "Organization Group*",
                "Width": 200,
                "AddNew": false,
                "MaxLength": 20,
                "ColumnWidth": "150,250",
                "ColumnType": "string,string",
                "LinkId": "OUGroupId"
            }
        },
        {
            "Name": "MRPId",
            "Type": "number",
            "Required": true,
            "ValidRegEx": "",
            "DefaultValue": 0,
            "width": "400px"
        },
        {
            "Name": "MRPCode",
            "Type": "string",
            "Required": true,
            "ValidRegEx": "",
            "DefaultValue": "",
            "PostData": true,
            "width": "400px",
            "Label": "Code*" 
        },
        {
            "Name": "OUName",
            "Type": "string",
            "Required": true,
            "ValidRegEx": "",
            "DefaultValue": "",
            "PostData": true,
            "width": "400px",
            "Label": "Organization Unit" 
        },
        {
            "Name": "MRPName",
            "Type": "string",
            "Required": true,
            "ValidRegEx": "",
            "DefaultValue": "",
            "PostData": true,
            "width": "400px",
            "Label": "Code*"
        },
        {
            "Name": "MasterScheduleName",
            "Type": "string",
            "Required": true,
            "ValidRegEx": "",
            "DefaultValue": "",
            "PostData": true,
            "width": "400px",
            "Label": "Master Schedule*"
        },
        
        {
            "Name": "OUGroupName",
            "Type": "string",
            "Required": false,
            "ValidRegEx": "",
            "DefaultValue": "",
            "PostData": true,
            "width": "400px",
            "Label": "Organization Group"
        },
        {
            "Name": "MRPVersion",
            "Type": "number",
            "Required": false,
            "ValidRegEx": "",
            "DefaultValue": "",
            "PostData": true
         
        },
        {
            "Name": "MRPIsAutoRelease",
            "Type": "number",
            "Required": false,
            "ValidRegEx": "",
            "DefaultValue": "0",
            "width": "400px",
            "Label": "Auto release planned order ?",
            "PickLists": [
                {
                    "key": 0,
                    "value": "Yes"
                },
                {
                    "key": 1,
                    "value": "No"
                }
            ]
        },
        {
            "Name": "MRPIsTrackConversion",
            "Type": "number",
            "Required": false,
            "ValidRegEx": "",
            "DefaultValue": "0",
            "width": "400px",
            "Label": "Track Conversion",
            "PickLists": [
                {
                    "key": 0,
                    "value": "Yes"
                },
                {
                    "key": 1,
                    "value": "No"
                }
            ]
        },
        {
            "Name": "MRPOverWriteType",
            "Type": "number",
            "Required": false,
            "ValidRegEx": "",
            "DefaultValue": "0",
            "width": "400px",
            "Label": "Overwrite Type*",
            "PickLists": [
                {
                    "key": 0,
                    "value": "No Overwrite"
                },
                {
                    "key": 1,
                    "value": "Only Outside Plan Time"
                },
                {
                    "key": 2,
                    "value": "Full Overwrite"
                }
            ]
        },
        {
            "Name": "MRPOrganizationType",
            "Type": "number",
            "Required": false,
            "ValidRegEx": "",
            "DefaultValue": "0",
            "width": "400px",
            "Label": "Organization Type*",
            "PickLists": [
                {
                    "key": 0,
                    "value": "Open"
                },
                {
                    "key": 1,
                    "value": "Organization Unit  "
                },
                {
                    "key": 2,
                    "value": "Organization Group  "
                }
            ]
        },
        {
            "Name": "MRPIncludeLeadTime",
            "Type": "number",
            "Required": false,
            "ValidRegEx": "",
            "DefaultValue": "0",
            "width": "400px",
            "Label": "Include Lead Time",
            "PickLists": [
                {
                    "key": 0,
                    "value": "Yes"
                },
                {
                    "key": 1,
                    "value": "No"
                }
            ]
        },
        {
            "Name": "MRPIncludeLotSize",
            "Type": "number",
            "Required": false,
            "ValidRegEx": "",
            "DefaultValue": "0",
            "width": "400px",
            "Label": "Include Lot Size",
            "PickLists": [
                {
                    "key": 0,
                    "value": "Yes"
                },
                {
                    "key": 1,
                    "value": "No"
                }
            ]
        },
        {
            "Name": "MRPIncludeStockInTransit",
            "Type": "number",
            "Required": false,
            "ValidRegEx": "",
            "DefaultValue": "0",
            "width": "400px",
            "Label": "Sale Stock in Transit ",
            "PickLists": [
                {
                    "key": 0,
                    "value": "Yes"
                },
                {
                    "key": 1,
                    "value": "No"
                }
            ]
        },
        {
            "Name": "MRPIncludeStock",
            "Type": "number",
            "Required": false,
            "ValidRegEx": "",
            "DefaultValue": "0",
            "width": "400px",
            "Label": "Include Stock",
            "PickLists": [
                {
                    "key": 0,
                    "value": "Yes"
                },
                {
                    "key": 1,
                    "value": "No"
                }
            ]
        }
    ]
}
