{
    "ObjectFields": [
        {
            "PartyTaxTypeCode": {
                "PicklistUrl": "PartyTaxType",
                "PicklistDisplayText": "Code,Name",
                "PicklistSearchFields": "Code,Name",
                "Multiple": false,
                "SLno":1,
                "PicklistSelection": "Id",
                "PlaceHolder":"Enter Code",
                "PicklistTitle": "Code",
                "Label": "Code*",
                "Width": 160,
                "AddNew": true,
                "MaxLength": 10,
                "isKeyField": true,
                "ColumnWidth": "200,300",
                "ColumnType": "string"
            },
            "PartyTaxTypeName":{
                "PicklistUrl": "PartyTaxType",
                "PicklistDisplayText": "Code,Name",
                "PicklistSearchFields": "Code,Name",
                "Multiple": false,
                "PicklistSelection": "Id",
                "PicklistTitle": "Name",
                "PlaceHolder":"Enter Name",
                "Label": "Name*",
                "isKeyField": true,
                "Width": 360,
                "AddNew": true,
                "MaxLength": 35,
                "ColumnWidth": "200,300",
                "ColumnType": "string"
            }
        },
        {
            "Name": "PartyTaxTypeId",
            "Type": "number",
            "Required": true,
            "ValidRegEx": "",
            "PostData": true,
            "DefaultValue": 0,
            "Width": 100
        },
        {
            "Name": "PartyTaxTypeCode",
            "Type": "string",
            "Label": "Code*",
            "Required": true,
            "Placeholder":"Enter Code",
            "ValidRegEx": "",
            "PostData": true,
            "DefaultValue": ""
        },
        {
            "Name": "PartyTaxTypeName",
            "Type": "string",
            "Label": "Name*",
            "Required": true,
            "ValidRegEx": "",
            "Placeholder":"Enter Name",
            "PostData": true,
            "DefaultValue": ""
        },
        {
            "Name": "PartyTaxTypeRegistration",
            "Type": "number",
            "Label": "Registration Field",
            "Placeholder": "",
            "Required": false,
            "LabelWidth":120,
            "ValidRegEx": "",
            "DefaultValue": 0,
            "width": 100,
            "PickLists": [
                {
                    "key": 0,
                    "value": "Registered"
                },
                {
                    "key": 1,
                    "value": "Unregistered"
                },
                {
                    "key": 2,
                    "value": "Composite"
                },
                {
                    "key": 3,
                    "value": "Branch"
                },
                {
                    "key": 4,
                    "value": "UIN"
                },
                {
                    "key": 5,
                    "value": "SEZ"
                }
            ]
        },
        {
            "Name": "PartyTaxTypeLocationType",
            "Type": "number",
            "Label": "Location Type",
            "Placeholder": "",
            "Required": false,
            "LabelWidth":124,
            "ValidRegEx": "",
            "DefaultValue": 0,
            "width": 100,
            "PickLists": [
                {
                    "key": 0,
                    "value": "Domestic WithinState"
                },
                {
                    "key": 1,
                    "value": "Domestic OutsideState"
                },
                {
                    "key": 2,
                    "value": "International"
                }
            ]
        },
        {
            "Name": "PartyTaxTypeStatus",
            "Type": "number",
            "Required": false,
            "PostData": true,
            "ValidRegEx": "",
            "DefaultValue": 1,
            "Width": 100
        },
        {
            "Name": "PartyTaxTypeVersion",
            "Type": "number",
            "Required": false,
            "PostData": true,
            "ValidRegEx": "",
            "DefaultValue": 1,
            "Width": 100
        },
        {
            "Name": "PartyTaxTypeDetailArray",
            "Type": "string",
            "Label": "",
            "Tooltip": "",
            "Placeholder": "",
            "Required": true,
            "Grid": [
            {
                "Label": "",
                "value": "PartyTaxTypeDetailId",
                "Type": "number",
                "Required": false,
                "PostData":true,
                "ValidRegEx": "",
                "IsVisible": false,
                "DefaultValue": 0,
                "left": 0,
                "width": 100
            }, {
                "Label": "",
                "value": "PartyTaxTypeId",
                "Type": "number",
                "DefaultId":true,
                "Required": false,
                "PostData":true,
                "ValidRegEx": "",
                "IsVisible": false,
                "DefaultValue": 0,
                "Width": 100
            },
            {
                "Label": "",
                "value": "PartyTaxTypeSlNo",
                "width": 50,
                "Type": "SNo",
                "PostData":true,
                "IsVisible": false,
                "SNo": 0,
                "sticky": true,
                "left": 0
            },
                {
                    "Label": "",
                    "value": "PartyTaxTypeDetailSlNo",
                    "width": 50,
                    "Type": "SNo",
                    "IsVisible": false,
                    "SNo": 1,
                    "sticky": true,
                    "left": 0
                },
                {
                    "Label": "",
                    "value": "BIZTransactionClassId",
                    "Type": "number",
                    "Required": false,
                    "ValidRegEx": "",
                    "IsVisible": false,
                    "DefaultValue": -1,
                    "Width": 100
                },
                {
                    "Label": "BIZTransaction Class*",
                    "value": "BIZTransactionClassName",
                    "width": 320,
                    "Type": "Picklist",
                    "sticky": false,
                    "DefaultValue":"",
                    
                    "Required":true,
                    "left": 50,
                    "PicklistDetail": {
                        "PicklistUrl": "BizTransactionClass",
                        "PicklistDisplayText": "Name",
                        "PicklistSearchFields": "Name",
                        "Multiple": false,
                        "AddNew": false,
                        "LinkId": "BIZTransactionClassId,BIZTransactionClassName",
                        "PicklistSelection": "Id",
                        "PlaceHolder":"Select Biztransaction Class",
                        "PicklistTitle": "Name",
                        "Label": "",
                        "Width": 300,
                        "MaxLength": 20,
                        "ColumnWidth": "150,250",
                        "ColumnType": "string,string"
                    },
                    "IsVisible": true,
                    "SNo": 2
                },
                {
                    "Label": "",
                    "value": "TransactionTypeId",
                    "Type": "number",
                    "Required": false,
                    "ValidRegEx": "",
                    "IsVisible": false,
                    "DefaultValue": -1,
                    "Width": 100
                },
                {
                    "Label": "Tax Transaction Type Name",
                    "value": "TransactionTypeName",
                    "width": 320,
                    "Type": "Picklist",
                    "Required":false,
                   
                    "sticky": false,
                    "DefaultValue":"",
                    "left": 50,
                    "PicklistDetail": {
                        "PicklistUrl": "TransactionType",
                        "PicklistDisplayText": "Name",
                        "PicklistSearchFields": "Name",
                        "Multiple": false,
                        "PlaceHolder":"Select Tax Transaction Type Name",
                        "AddNew": false,
                        "LinkId": "TransactionTypeId,TransactionTypeName",
                        "PicklistSelection": "Id",
                        "PicklistTitle": "Name",
                        "Label": "",
                        "Width": 300,
                        "MaxLength": 20,
                        "ColumnWidth": "150,250",
                        "ColumnType": "string,string",
                        "PicklistCriteria": "TransactionType"
                    },
                    "IsVisible": true,
                    "SNo": 3
                },
                {
                    "Label": "",
                    "value": "DutyTransactionTypeId",
                    "Type": "number",
                    "Required": false,
                    "ValidRegEx": "",
                    "IsVisible": false,
                    "DefaultValue": -1,
                    "Width": 100
                },
                {
                    "Label": "Duty Tax Transaction Type Name*",
                    "value": "DutyTransactionTypeName",
                    "width": 320,
                    "Type": "Picklist",
                   "Required":true,
                    "sticky": false,
                    "left": 50,
                    "PicklistDetail": {
                        "PicklistUrl": "TransactionType",
                        "PicklistDisplayText": "Name",
                        "PicklistSearchFields": "Name",
                        "Multiple": false,
                        "AddNew": false,
                        "LinkId": "DutyTransactionTypeId,DutyTransactionTypeName",
                        "PicklistSelection": "Id",
                        "PlaceHolder":"Select Duty Transaction Type Name",
                        "PicklistTitle": "Name",
                        "Label": "",
                        "Width": 300,
                        "MaxLength": 20,
                        "ColumnWidth": "150,250",
                        "ColumnType": "string,string",
                        "PicklistCriteria": "TransactionType2"
                    },
                    "IsVisible": true,
                    "SNo": 4
                }
            ]
        }
    ]
}