{
    "ObjectFields": [
        {
            "OUName": {
                "PicklistUrl": "OUName",
                "PicklistDisplayText": "Code,Name",
                "PicklistSearchFields": "Code,Name",
                "Multiple": false,
                "PicklistSelection": "Id",
                "PicklistTitle": "Name",
                "Label": "OU*",
                "LinkId": "OUId",
                "ReadOnly": true,
                "Width": 200,
                "AddNew": false,
                "ColumnWidth": "150,250",
                "ColumnType": "string"
            },
            "PartyName": {
                "PicklistUrl": "Party",
                "PicklistDisplayText": "Code,Name",
                "PicklistSearchFields": "Code,Name",
                "PlaceHolder": "Select Party",
                "Multiple": false,
                "PicklistSelection": "Id",
                "PicklistTitle": "Name",
                "Label": "Party *",
                "Width": 160,
                "AddNew": false,
                "ColumnWidth": "200",
                "ColumnType": "string,string"
            },
            "PartyBranchName": {
                "PicklistUrl": "PartyBranch",
                "PicklistDisplayText": "Code,Name",
                "PicklistSearchFields": "Code,Name",
                "PlaceHolder": "Select Branch",
                "Multiple": false,
                "PicklistSelection": "Id",
                "PicklistTitle": "Name",
                "Label": "Branch Name*",
                "Width": 160,
                "AddNew": false,
                "ColumnWidth": "200",
                "ColumnType": "string,string"
            },
            "AccountName": {
                "PicklistUrl": "Account",
                "PicklistDisplayText": "Code,Name",
                "PicklistSearchFields": "Code,Name",
                "PlaceHolder": "Select Account",
                "Multiple": false,
                "PicklistSelection": "Id",
                "PicklistTitle": "Name",
                "Label": "Account *",
                "Width": 160,
                "AddNew": false,
                "ColumnWidth": "200",
                "ColumnType": "string,string"
            }
        },
        {
                "Name": "PartyOUId",
                "Type": "number",
                "Required": false,
                "ValidRegEx": "",
                "PostData": true,
                "DefaultValue": -1
        },
        {
            "Name": "PartyOUType",
            "Type": "number",
            "Label": "Type",
            "Required": false,
            "PostData": true,
            "ValidRegEx": "",
            "DefaultValue": 1,
            "Width": 200,
            "PickLists": [
                {
                    "key": 0,
                    "value": "Party"
                },
                {
                    "key": 1,
                    "value": "Account"
                }
            ]
        },
        {
            "Name": "PartyOUStatus",
            "Type": "number",
            "Label": "Status",
            "Required": false,
            "Placeholder": "",
            "PostData": true,
            "ValidRegEx": "",
            "DefaultValue": 1,
            "Width": 200,
            "PickLists": [
              {
                "key": 0,
                "value": "Pending"
              },
              {
                "key": 1,
                "value": "Active"
              },
              {
                "key": 2,
                "value": "Deleted"
              },
              {
                "key": 3,
                "value": "Amended"
              },
              {
                "key": 4,
                "value": "In Active"
              },
              {
                "key": 5,
                "value": "Archived"
              }
            ]
          },
        {
            "Name": "PartyOUSequenceNumber",
            "Type": "string",
            "Required": false,
            "MaxLength": 10,
            "Width":200,
            "ValidRegEx": "",
            "PostData": true,
            "DefaultValue": ""
    },
    {
        "Name": "PartyOUIsPurchaseApplicable",
        "Type": "number",
        "Label": "Purchase Applicable ?",
        "Required": false,
        "PostData": true,
        "ValidRegEx": "",
        "DefaultValue": 1,
        "Width": 200
    },
    {
        "Name": "PartyOUIsSalesApplicable",
        "Type": "number",
        "Label": "Sales Allowed ?",
        "Required": false,
        "PostData": true,
        "ValidRegEx": "",
        "DefaultValue": 1,
        "Width": 200
    },
    {
        "Name": "PartyOUCreditAllowed",
        "Type": "number",
        "Label": "Credit Balance Limit Applicable?",
        "Required": false,
        "PostData": true,
        "ValidRegEx": "",
        "DefaultValue": 1,
        "Width": 200
    },

    {
        "Name": "PartyOUCreditLimit",
        "Type": "number",
        "Required": false,
        "MaxLength": 17,
        "Mask":"0000000000000.000",
        "Label":"Maximum allowed Credit Balance",
        "Width":200,
        "ValidRegEx": "",
        "PostData": true,
        "DefaultValue": 0
},
{
    "Name": "PartyOUDebitAllowed",
    "Type": "number",
    "Label": "Debit Balance Limit Applicable?",
    "Required": false,
    "PostData": true,
    "ValidRegEx": "",
    "DefaultValue": 1,
    "Width": 200
},
    {
        "Name": "PartyOUDebitLimit",
        "Type": "number",
        "Label": "Maximum allowed Debit Balance",
        "Required": false,
        "Mask":"0000000000000.000",
        "PostData": true,
        "ValidRegEx": "",
        "DefaultValue": 0,
        "Width": 200
    },
    {
        "Name": "PartyOUNumberOfBills",
        "Type": "number",
        "Label": "Number Of Bills",
        "Required": false,
        "PostData": true,
        "ValidRegEx": "",
        "MaxLength": 4,
        "DefaultValue": 0,
         "Width": 200
    },
    {
        "Name": "PartyId",
        "Type": "number",
        "Required": false,
        "ValidRegEx": "",
        "PostData": true,
        "DefaultValue": -1
    },
    {
        "Name": "PartyName",
        "Type": "string",
        "Required": true,
        "ValidRegEx": "",
        "Label":"Party *",
        "PostData": true,
        "DefaultValue": ""
    },
    {
        "Name": "AgentId",
        "Type": "number",
        "Required": false,
        "ValidRegEx": "",
        "PostData": true,
        "DefaultValue": -1
    },
    {
        "Name": "TransporterId",
        "Type": "number",
        "Required": false,
        "ValidRegEx": "",
        "PostData": true,
        "DefaultValue": -1
    },
    {
        "Name": "PartyBranchId",
        "Type": "number",
        "Required": false,
        "ValidRegEx": "",
        "PostData": true,
        "DefaultValue": -1
    },
    {
        "Name": "PartyBranchName",
        "Type": "string",
        "Required": false,
        "ValidRegEx": "",
        "PostData": true,
        "ReadOnly":true,
        "Label":"Branch Name*",
        "DefaultValue": ""
    },
    {
        "Name": "OUId",
        "Type": "number",
        "Required": false,
        "ValidRegEx": "",
        "PostData": true,
        "DefaultValue": -1
    },
    {
        "Name": "OUName",
        "Type": "string",
        "Required": false,
        "ValidRegEx": "",
        "PostData": true,
        "Label":"OU *",
        "DefaultValue": "ABC ORGANIZATION"
    },
    {
        "Name": "TaxTypeId",
        "Type": "number",
        "Required": false,
        "ValidRegEx": "",
        "PostData": true,
        "DefaultValue": -1
    },
    {
        "Name": "PurchasePriceListId",
        "Type": "number",
        "Required": false,
        "ValidRegEx": "",
        "PostData": true,
        "DefaultValue": -1
    },
    {
        "Name": "PurchasePaymentTermId",
        "Type": "number",
        "Required": false,
        "ValidRegEx": "",
        "PostData": true,
        "DefaultValue": -1
    },
    {
        "Name": "SalesInchargeId",
        "Type": "number",
        "Required": false,
        "ValidRegEx": "",
        "PostData": true,
        "DefaultValue": -1
    },
    {
        "Name": "InchargeId",
        "Type": "number",
        "Required": false,
        "ValidRegEx": "",
        "PostData": true,
        "DefaultValue": -1
    },
    {
        "Name": "SalesPaymentTermId",
        "Type": "number",
        "Required": false,
        "ValidRegEx": "",
        "PostData": true,
        "DefaultValue": -1
    },
    {
        "Name": "SalesPriceListId",
        "Type": "number",
        "Required": false,
        "ValidRegEx": "",
        "PostData": true,
        "DefaultValue": -1
    },
    {
        "Name": "AccountId",
        "Type": "number",
        "Required": false,
        "ValidRegEx": "",
        "PostData": true,
        "DefaultValue": -1
    },
    {
        "Name": "AccountName",
        "Type": "string",
        "Required": false,
        "ValidRegEx": "",
        "PostData": true,
        "Label":"Account *",
        "DefaultValue": ""
    },
    {
        "Name": "RouteId",
        "Type": "number",
        "Required": false,
        "ValidRegEx": "",
        "PostData": true,
        "DefaultValue": -1
    },
    {
        "Name": "PurchaseTermsSetId",
        "Type": "number",
        "Required": false,
        "ValidRegEx": "",
        "PostData": true,
        "DefaultValue": -1
    },
    {
        "Name": "SalesTermsSetId",
        "Type": "number",
        "Required": false,
        "ValidRegEx": "",
        "PostData": true,
        "DefaultValue": -1
    },
    
    {
        "Name": "PartyOURouteIds",
        "Type": "number",
        "Required": false,
        "ValidRegEx": "",
        "PostData": true,
        "DefaultValue":-1
    },
    {
        "Name": "PartyOUVersion",
        "Type": "number",
        "Required": false,
        "ValidRegEx": "",
        "PostData": true,
        "DefaultValue":5
    }
    ]
}