{
    "ObjectFields":[
        {
            "ProgramClassCode":{
                "SLno":1,
                "PicklistUrl": "ProgramClass",
                "PicklistDisplayText": "Code,Name",
                "PicklistSearchFields": "Code,Name",
                "Multiple": false,
                "PicklistSelection": "Id",
                "PicklistTitle": "Code",
                "Label": "Code*",
                "Width": 160,
                "AddNew": true,
                "MaxLength": 20,
                "ColumnWidth": "200,450",
                "ColumnType": "string",
                "isKeyField":"true",
                "PlaceHolder": "Enter Code"
            },
            "ProgramClassName":{
                "PicklistUrl": "ProgramClass",
                "PicklistDisplayText": "Code,Name",
                "PicklistSearchFields": "Code,Name",
                "Multiple": false,
                "PicklistSelection": "Id",
                "PicklistTitle": "Name",
                "Label": "Name*",
                "Width": 360,
                "AddNew": true,
                "MaxLength": 200,
                "ColumnWidth": "200,450",
                "ColumnType": "string",
                "PlaceHolder": "Enter Name",
                "isKeyField":"true"
            },
            "ProgramAssemblyName":{
                "PicklistUrl": "ProgramAssembly",
                "PicklistDisplayText": "Name",
                "PicklistSearchFields": "Name",
                "Multiple": false,
                "PicklistSelection": "Id",
                "PicklistTitle": "Name",
                "Label": "Assembly*",
                "Width": 360,
                "AddNew": false,
                "MaxLength": 50,
                "LabelWidth":86,
                "ColumnWidth": "600",
                "ColumnType": "string",
               "LinkId":"ProgramAssemblyId",
               "PlaceHolder": "Enter Assembly"
            }
        },
        {
            "Name": "ProgramClassId",
            "Type": "number",
            "Required": false,
            "PostData": true,
            "ValidRegEx": "",
            "DefaultValue": 0
        },
        {
            "Name": "ProgramClassCode",
            "Type": "string",
            "Label": "Code*",
            "Required": true,
            "ValidRegEx": "",
            "PostData": true,
            "DefaultValue": ""
        },
        {
            "Name": "ProgramClassName",
            "Type": "string",
            "Label": "Name*",
            "Required": true,
            "ValidRegEx": "",
            "PostData": true,
            "DefaultValue": ""
        },
        {
            "Name": "ProgramAssemblyId",
            "Type": "number",
            "Required": false,
            "PostData": true,
            "ValidRegEx": "",
            "DefaultValue": -1
        },
        {
            "Name": "ProgramAssemblyName",
            "Type": "string",
            "Label": "Assembly*",
            "Required": true,
            "ValidRegEx": "",
            "PostData": true,
            "DefaultValue": ""
        },
        {
            "Name": "ProgramClassSection",
            "Type": "string",
            "Label": "Section*",
            "Placeholder": "Enter Section",
            "Required": true,
            "PostData": true,
            "LabelWidth":86,
            "ValidRegEx": "",
            "DefaultValue": "",
            "Width": 360,
            "MaxLength": 35
        },
        {
            "Name": "ProgramClassRemarks",
            "Type": "string",
            "Label": "Remarks",
            "Placeholder": "Enter Remarks",
            "Required": false,
            "PostData": true,
            "LabelWidth":86,
            "ValidRegEx": "",
            "DefaultValue": "",
            "Width": 360,
            "MaxLength": 200
        },
        {
            "Name": "ProgramClassCreatedOn",
            "Type": "string",
            "Required": false,
            "PostData": true,
            "ValidRegEx": "",
            "DefaultValue": "/Date(1709895240000)/"
        },
        {
            "Name": "ProgramClassModifiedOn",
            "Type": "string",
            "Required": false,
            "PostData": true,
            "ValidRegEx": "",
            "DefaultValue": "/Date(1709895240000)/"
        },
        {
            "Name": "ProgramClassModifiedByName",
            "Type": "string",
            "Required": false,
            "PostData": true,
            "ValidRegEx": "",
            "DefaultValue": "ADMIN"
        },
        {
            "Name": "ProgramClassCreatedByName",
            "Type": "string",
            "Required": false,
            "PostData": true,
            "ValidRegEx": "",
            "DefaultValue": "ADMIN"
        },
        {
            "Name": "ProgramClassStatus",
            "Type": "number",
            "Required": false,
            "PostData": true,
            "ValidRegEx": "",
            "DefaultValue": 1
        },
        {
            "Name": "ProgramClassVersion",
            "Type": "number",
            "Required": false,
            "PostData": true,
            "ValidRegEx": "",
            "DefaultValue": 1
        }


    ]
}