{
    "ObjectFields": [
        {
           "ProgramTypeCode":{
            "SLno":1,
            "PicklistUrl": "ProgramType",
            "PicklistDisplayText": "Code,Name",
            "PicklistSearchFields": "Code,Name",
            "Multiple": false,
            "PicklistSelection": "Id",
            "PicklistTitle": "Code",
            "Label": "Code*",
            "Width": 160,
            "AddNew": true,
            "MaxLength": 10,
            "ColumnWidth": "200",
            "ColumnType": "string",
            "PlaceHolder": "Enter Code",
            "isKeyField":"true"

           },
           "ProgramTypeName":{
            "PicklistUrl": "ProgramType",
            "PicklistDisplayText": "Code,Name",
            "PicklistSearchFields": "Code,Name",
            "Multiple": false,
            "PicklistSelection": "Id",
            "PicklistTitle": "Code",
            "Label": "Name*",
            "Width": 360,
            "AddNew": true,
            "MaxLength": 35,
            "ColumnWidth": "200",
            "ColumnType": "string",
            "PlaceHolder": "Enter Name",
            "isKeyField":"true"
           }
        },
        {
            "Name": "ProgramTypeId",
            "Type": "number",
            "Required": false,
            "PostData": true,
            "ValidRegEx": "",
            "DefaultValue": 0
        },
        {
            "Name": "ProgramTypeCode",
            "Type": "string",
            "Label": "Code*",
            "Required": true,
            "ValidRegEx": "",
            "PostData": true,
            "DefaultValue": ""
        },
        {
            "Name": "ProgramTypeName",
            "Type": "string",
            "Label": "Name*",
            "Required": true,
            "ValidRegEx": "",
            "PostData": true,
            "DefaultValue": ""
        },
        {
            "Name": "ProgramTypeRemarks",
            "Type": "string",
            "Label": "Remarks",
            "Placeholder": "Enter the Remarks",
            "Required": false,
            "PostData": true,
            "ValidRegEx": "",
            "DefaultValue": "",
            "Width": 360,
            "LabelWidth":83,
            "MaxLength": 200
        },
        {
            "Name": "ProgramTypeSortOrder",
            "Type": "number",
            "Label": "Sort Order",
            "Placeholder":"Enter Sort Order",
            "Required": false,
            "PostData": true,
            "ValidRegEx": "",
            "DefaultValue":9999,
            "LabelWidth":83,
            "Width": 120,
            "MaxLength": 4
        },
        {
            "Name": "ProgramTypeCreatedOn",
            "Type": "string",
            "Required": false,
            "PostData": true,
            "ValidRegEx": "",
            "DefaultValue": "/Date(1710430200000)/"
        },
        {
            "Name": "ProgramTypeModifiedOn",
            "Type": "string",
            "Required": false,
            "PostData": true,
            "ValidRegEx": "",
            "DefaultValue": "/Date(1710430200000)/"
        },{
            "Name": "ProgramTypeModifiedByName",
            "Type": "string",
            "Required": false,
            "PostData": true,
            "ValidRegEx": "",
            "DefaultValue": "ADMIN"
        },
        {
            "Name": "ProgramTypeCreatedByName",
            "Type": "string",
            "Required": false,
            "PostData": true,
            "ValidRegEx": "",
            "DefaultValue": "ADMIN"
        },
        {
            "Name": "ProgramTypeStatus",
            "Type": "number",
            "Required": false,
            "PostData": true,
            "ValidRegEx": "",
            "DefaultValue": 1
        },
        {
            "Name": "ProgramTypeVersion",
            "Type": "number",
            "Required": false,
            "PostData": true,
            "ValidRegEx": "",
            "DefaultValue": 1
        }
    ]
}