{
    "ObjectFields": [
        {
            "ModuleName": {
                "PicklistUrl": "Module",
                "PicklistDisplayText": "Code,Name",
                "PicklistSearchFields": "Name",
                "Multiple": false,
                "LinkId": "ModuleId",
                "PicklistSelection": "Id",
                "PicklistTitle": "Name",
                "Label": "Module*",
                "SLno":1,
                "Width": 360,
                "PlaceHolder": "Select Module",
                "Required": true,
                "AddNew": false,
                "MaxLength": 20,
                "LabelWidth": 0,
                "ColumnWidth": "160,200",
                "ColumnType": "string,string"
            },
            "ClientName": {
                "PicklistUrl": "Client",
                "PicklistDisplayText": "Code,Name",
                "PicklistSearchFields": "Name",
                "Multiple": true,
                "LinkId": "Client",
                "PicklistSelection": "Id",
                "PicklistTitle": "Name",
                "Label": "Client*",
                "Width": 360,
                "Required": true,
                "PlaceHolder": "Select Clients",
                "AddNew": false,
                "MaxLength": 20,
                "ColumnWidth": "160,200",
                "ColumnType": "string,string"
            },
            "WebServiceName": {
                "PicklistUrl": "WebService",
                "PicklistDisplayText": "Name",
                "PicklistSearchFields": "Name",
                "Multiple": false,
                "LinkId": "WebServiceId",
                "PicklistSelection": "Id",
                "PicklistTitle": "Name",
                "Label": "Web Service*",
                "Required": true,
                "Width": 360,
                "PlaceHolder": "Select Web Service",
                "AddNew": false,
                "MaxLength": 100,
                "LabelWidth":126,
                "ColumnWidth": "260,100",
                "ColumnType": "string,string"
            },
            "ReportFormatSection": {
                "PicklistUrl": "GCM",
                "PicklistDisplayText": "Code,Name",
                "PicklistSearchFields": "Name",
                "Multiple": false,
                "LinkId": "GcmSectionId",
                "PicklistSelection": "Id",
                "PicklistTitle": "Name",
                "Label": "Section*",
                "Required": true,
                "Width": 360,
                "PlaceHolder": "Select Section",
                "AddNew": false,
                "LabelWidth":126,
                "MaxLength": 35,
                "ColumnWidth": "160,200",
                "ColumnType": "string,string"
            },
            "ReportFormatPurpose": {
                "PicklistUrl": "GCM",
                "PicklistDisplayText": "Code,Name",
                "PicklistSearchFields": "Name",
                "Multiple": false,
                "LinkId": "GcmPurposeId",
                "PicklistSelection": "Id",
                "PicklistTitle": "Name",
                "Required": true,
                "Label": " Purpose *",
                "Width": 360,
                "PlaceHolder": "Enter Purpose",
                "AddNew": false,
                "MaxLength": 20,
                "LabelWidth":126,

                "ColumnWidth": "160,200",
                "ColumnType": "string,string"
            },
            "ReportFormatName": {
                "PicklistUrl": "ReportFormat",
                "PicklistDisplayText": "Code,Name",
                "PicklistSearchFields": "Name",
                "Multiple": false,
                "PicklistSelection": "Id",
                "PicklistTitle": "Name",
                "Label": "Format Name*",
                "PlaceHolder": "Enter Format Name",
                "isKeyField": true,
                "Width": 360,
                "AddNew": true,
                "Required": true,
                "MaxLength": 50,
                "ColumnWidth": "160,200",
                "ColumnType": "string,string",
                "PicklistCriteria": "ReportModule"
            },
            "ReportFormatCode": {
                "PicklistUrl": "ReportFormat",
                "PicklistDisplayText": "Code,Name",
                "PicklistSearchFields": "Code",
                "Multiple": false,
                "PicklistSelection": "Id",
                "PicklistTitle": "Code",
                "Label": "Format Code*",
                "isKeyField": true,
                "Required": true,
                "Width": 360,
                "PlaceHolder": "Enter Name",
                "AddNew": true,
                "MaxLength": 11,
                "ColumnWidth": "160,200",
                "ColumnType": "string,string",
                "PicklistCriteria": "ReportModule"
            }
        },
        {
            "Name": "GcmPurposeId",
            "Type": "number",
            "Required": false,
            "ValidRegEx": "",
            "PostData": false,
            "DefaultValue": -1
        },
        {
            "Name": "ReportFormatId",
            "Type": "number",
            "Required": false,
            "ValidRegEx": "",
            "PostData": true,
            "DefaultValue": 0
        },
        {
            "Name": "ReportFormatReportFile",
            "Type": "string",
            "Label": "Report File *",
            "Tooltip": "",
            "Placeholder": "Enter Report File",
            "Required": true,
            "ValidRegEx": "",
            "MaxLength": 100,
            "LabelWidth":126,
            "Width": 360,
            "DefaultValue": ""
        },
        {
            "Name": "ReportFormatCode",
            "Type": "string",
            "Label": "Format Code*",
            "Required": true,
            "PlaceHolder": "Enter Format Code",
            "PostData": true,
            "ValidRegEx": "",
            "DefaultValue": "",
            "Width": 360
        },
        {
            "Name": "ReportFormatName",
            "Type": "string",
            "Label": "Format Name*",
            "Required": true,
            "PostData": true,
            "ValidRegEx": "",
            "DefaultValue": "",
            "Width": 360
        },
        {
            "Name": "ReportFormatPurpose",
            "Type": "string",
            "Label": " Purpose*",
            "Required": true,
            "PostData": true,
            "PlaceHolder": "Enter Purpose",
            "ValidRegEx": "",
            "DefaultValue": "",
            "Width": 360
        },
        {
            "Name": "ModuleId",
            "Type": "number",
            "Required": false,
            "ValidRegEx": "",
            "PostData": true,
            "DefaultValue": 0
        },
        {
            "Name": "ModuleCode",
            "Type": "string",
            "Required": false,
            "PostData": true,
            "ValidRegEx": "",
            "DefaultValue": "",
            "Width": 360
        },
        {
            "Name": "ModuleName",
            "Type": "string",
            "Required": true,
            "Label": "Module*",
            "PlaceHolder": "Select Module",
            "PostData": true,
            "ValidRegEx": "",
            "DefaultValue": "",
            "Width": 360
        },
        {
            "Name": "WebServiceId",
            "Type": "number",
            "Required": false,
            "ValidRegEx": "",
            "PostData": true,
            "DefaultValue": -1
        },
        {
            "Name": "WebServiceName",
            "Type": "string",
            "Required": true,
            "Label": "Web Service",
            "PlaceHolder": "Web Service",
            "PostData": true,
            "ValidRegEx": "",
            "LabelWidth":126,
            "DefaultValue": "",
            "Width": 360
        },
        {
            "Name": "WebServiceUriTemplate",
            "Type": "string",
            "Required": false,
            "PostData": false,
            "ValidRegEx": "",
            "DefaultValue": "",
            "Width": 360
        },
        {
            "Name": "Client",
            "Type": "number",
            "Required": false,
            "ValidRegEx": "",
            "PostData": true,
            "DefaultValue": -1
        },
        {
            "Name": "ClientCode",
            "Type": "string",
            "Required": false,
            "PostData": true,
            "ValidRegEx": "",
            "DefaultValue": "",
            "Width": 360
        },
        {
            "Name": "ClientName",
            "Type": "string",
            "Required": true,
            "Label": "Client*",
            "PostData": true,
            "ValidRegEx": "",
            "DefaultValue": "",
            "Width": 360
        },
        {
            "Name": "ReportFormatRepPath",
            "Type": "string",
            "Required": false,
            "PostData": true,
            "ValidRegEx": "",
            "DefaultValue": "NONE",
            "Width": 360
        },
        {
            "Name": "ReportFormatRemarks",
            "Type": "string",
            "Required": false,
            "Label": "Remarks",
            "PlaceHolder": "Enter Remarks",
            "PostData": true,
            "LabelWidth":126,
            "ValidRegEx": "",
            "DefaultValue": "",
            "MaxLength": 200,
            "Width": 360
        },
        {
            "Name": "ReportFormatIsPrintLogo",
            "Type": "number",
            "Label": "Report Logo?",
            "Required": false,
            "ValidRegEx": "",
            "PostData": true,
            "DefaultValue": 1
        },
        {
            "Name": "ReportFormatSection",
            "Type": "string",
            "Required": true,
            "Label": "Section*",
            "PlaceHolder": "Select Section",
            "PostData": true,
            "ValidRegEx": "",
            "DefaultValue": "",
            "Width": 360
        },
        {
            "Name": "ReportFormatCreatedById",
            "Type": "number",
            "Required": true,
            "PostData": true,
            "ValidRegEx": "",
            "DefaultValue": -1,
            "Width": 360
        },
        {
            "Name": "ReportFormatCreatedOn",
            "Type": "string",
            "Required": false,
            "PostData": true,
            "ValidRegEx": "",
            "DefaultValue": "/Date(1362464236000)/",
            "Width": 360
        },
        {
            "Name": "ReportFormatModifiedById",
            "Type": "number",
            "Required": false,
            "PostData": true,
            "ValidRegEx": "",
            "DefaultValue": -1,
            "Width": 360
        },
        {
            "Name": "ReportFormatModifiedOn",
            "Type": "string",
            "Required": false,
            "PostData": true,
            "ValidRegEx": "",
            "DefaultValue": "/Date(1362464236000)/",
            "Width": 360
        },
        {
            "Name": "ReportFormatCreatedByName",
            "Type": "string",
            "Required": false,
            "PostData": true,
            "ValidRegEx": "",
            "DefaultValue": "ADMIN",
            "Width": 360
        },
        {
            "Name": "ReportFormatModifiedByName",
            "Type": "string",
            "Required": false,
            "PostData": true,
            "ValidRegEx": "",
            "DefaultValue": "ADMIN",
            "Width": 360
        },
        {
            "Name": "ReportFormatSortOrder",
            "Type": "number",
            "Required": false,
            "PostData": true,
            "ValidRegEx": "",
            "DefaultValue": 0,
            "Width": 360
        },
        {
            "Name": "ReportFormatStatus",
            "Type": "number",
            "Required": false,
            "PostData": true,
            "ValidRegEx": "",
            "DefaultValue": 1,
            "Width": 360
        },
        {
            "Name": "ReportFormatVersion",
            "Type": "number",
            "Required": false,
            "PostData": true,
            "ValidRegEx": "",
            "DefaultValue": 1,
            "Width": 360
        },
        {
            "Name": "ReportFormatSourceType",
            "Type": "number",
            "Required": false,
            "PostData": true,
            "ValidRegEx": "",
            "DefaultValue": 1,
            "Width": 360
        },
        {
            "Name": "ReportFormatISOReferenceNumber",
            "Type": "string",
            "Required": true,
            "PostData": true,
            "ValidRegEx": "",
            "MaxLength":20,
            "Placeholder":"Enter ISO Number",
            "Label": "ISO REFERENCE NUMBER *",
            "DefaultValue": "",
            "Width": 360
        },
        {
            "Name": "MailId",
            "Type": "string",
            "Required": false,
            "PostData": true,
            "ValidRegEx": "",
            "DefaultValue": "null",
            "Width": 360
        },
        {
            "Name": "GcmSectionId",
            "Type": "number",
            "Required": false,
            "PostData": true,
            "ValidRegEx": "",
            "DefaultValue": -1,
            "Width": 360
        },
        {
            "Name": "GcmSectionCode",
            "Type": "string",
            "Required": false,
            "PostData": false,
            "ValidRegEx": "",
            "DefaultValue": "",
            "Width": 360
        },
        {
            "Name": "GcmSectionName",
            "Type": "string",
            "Required": false,
            "PostData": false,
            "ValidRegEx": "",
            "DefaultValue": "",
            "Width": 360
        },
        {
            "Name": "ReportFormatDisplayFileName",
            "Type": "string",
            "Required": false,
            "PostData": false,
            "ValidRegEx": "",
            "DefaultValue": "",
            "Width": 360
        },
        {
            "Name": "ReportFormatDataSourceFileName",
            "Type": "string",
            "Required": true,
            "Label": "Data Source File*",
            "Placeholder": "Enter Data Source File",
            "PostData": true,
            "MaxLength": 100,
            "LabelWidth":126,
            "ValidRegEx": "",
            "DefaultValue": "",
            "Width": 360
        }
    ]
}