{
    "ObjectFields": [
        {
            "ReportName": {
                "PicklistUrl": "Report",
                "PicklistDisplayText": "Name",
                "PicklistSearchFields": "Name",
                "Multiple": false,
                "PicklistSelection": "Id",
                "PicklistTitle": "Name",
                "Label": "Report*",
                "MaxLength": 20,
                "Width": 200,
                "AddNew": false,
                "ColumnWidth": "200",
                "ColumnType": "string,string",
                "isKeyValue": true
            },
            "ModuleName": {
                "PicklistUrl": "Module",
                "PicklistDisplayText": "Name",
                "PicklistSearchFields": "Name",
                "Multiple": false,
                "PicklistSelection": "Id",
                "PicklistTitle": "Name",
                "Label": "",
                "LinkId": "ModuleId",
                "MaxLength": 20,
                "Width": 200,
                "AddNew": false,
                "ColumnWidth": "200",
                "ColumnType": "string,string",
                "isKeyValue": true
            }
        },
        {
            "Name": "ReportFormatId",
            "Type": "number",
            "Required": false,
            "ValidRegEx": "",
            "PostData": false,
            "DefaultValue": 0
        },
        {
            "Name": "ReportFormatName",
            "Type": "string",
            "Required": false,
            "ValidRegEx": "",
            "DefaultValue": "",
            "PostData": false,
            "width": "200"
        },
        {
            "Name": "ReportName",
            "Type": "string",
            "Required": false,
            "ValidRegEx": "",
            "DefaultValue": "",
            "PostData": false,
            "width": "200",
            "Label": "Report*"
        },
        {
            "Name": "ModuleName",
            "Type": "string",
            "Required": false,
            "ValidRegEx": "",
            "PostData": false,
            "DefaultValue": ""
        },
        {
            "Name": "ModuleId",
            "Type": "number",
            "Required": false,
            "ValidRegEx": "",
            "PostData": false,
            "DefaultValue": -1
        },
        {
            "Name": "Reportvsformatarray",
            "Type": "string",
            "Label": "",
            "Tooltip": "",
            "Placeholder": "",
            "IsFieldRequired": false,
            "Required": false,
            "PostData": true,
            "Grid": [
                {
                    "Label": "SLNo",
                    "value": "SlNo",
                    "width": 50,
                    "Type": "SNo",
                    "IsVisible": true,
                    "SNo": 1,
                    "sticky": false,
                    "Required": false,
                    "PostData": true,
                    "left": 0
                },
                {
                    "value": "ReportFormatId",
                    "width": 50,
                    "Type": "number",
                    "IsVisible": false,
                    "SNo": 6,
                    "sticky": false,
                    "left": 0,
                    "Required": false,
                    "PostData": true,
                    "DefaultId": true,
                    "DefaultValue": -1
                  },
                {
                    "Label": "Report Format*",
                    "value": "ReportFormatName",
                    "width": 150,
                    "Type": "Picklist",
                    "IsVisible": true,
                    "SNo": 2,
                    "sticky": false,
                    "Required": true,
                    "PostData": true,
                    "left": 0,
                    "PicklistDetail": {
                      "PicklistUrl": "ReportFormat",
                      "PicklistDisplayText": "Code,Name",
                      "PicklistSearchFields": "Name",
                      "Multiple": false,
                      "PicklistSelection": "Id",
                      "PicklistTitle": "Name",
                      "Label": "",
                      "Width": 150,
                      "LinkId": "ReportFormatId",
                      "AddNew": false,
                      "MaxLength": 35,
                      "ColumnWidth": "200,200",
                      "ColumnType": "string,string",
                      "PicklistCriteria": "Report"
                    }
                  },
                     {
                    "Label": "Report Format*",
                    "value": "ReportFormatName",
                    "width": 150,
                    "Type": "Picklist",
                    "IsVisible": true,
                    "SNo": 2,
                    "sticky": false,
                    "Required": true,
                    "PostData": true,
                    "left": 0,
                    "PicklistDetail": {
                      "PicklistUrl": "ReportFormat",
                      "PicklistDisplayText": "Code,Name",
                      "PicklistSearchFields": "Name",
                      "Multiple": false,
                      "PicklistSelection": "Id",
                      "PicklistTitle": "Name",
                      "Label": "",
                      "Width": 150,
                      "LinkId": "ReportFormatId",
                      "AddNew": false,
                      "MaxLength": 35,
                      "ColumnWidth": "200,200",
                      "ColumnType": "string,string",
                      "PicklistCriteria": "Report"
                    }
                  },
                  {
                    "Label": "ReportFormatReportFile",
                    "value": "ReportFormatName",
                    "width": 150,
                    "Type": "Picklist",
                    "IsVisible": true,
                    "SNo": 2,
                    "sticky": false,
                    "Required": true,
                    "PostData": true,
                    "left": 0,
                    "PicklistDetail": {
                      "PicklistUrl": "ReportFormat",
                      "PicklistDisplayText": "Code,Name",
                      "PicklistSearchFields": "Name",
                      "Multiple": false,
                      "PicklistSelection": "Id",
                      "PicklistTitle": "Name",
                      "Label": "",
                      "Width": 150,
                      "LinkId": "ReportFormatId",
                      "AddNew": false,
                      "MaxLength": 35,
                      "ColumnWidth": "200,200",
                      "ColumnType": "string,string",
                      "PicklistCriteria": "Report"
                    }
                  }
            ]
        }
    ]
}