{
  "ObjectFields": [
    {
      "RoleName": {
        "PicklistUrl": "RoleModule",
        "PicklistDisplayText": "Code,Name",
        "PicklistSearchFields": "Code,Name",
        "Multiple": false,
        "PicklistSelection": "Id",
        "PicklistTitle": "Name",
        "Label": "Role",
        "MaxLength": 20,
        "SLno":1,
        "Width": 360,
        "PlaceHolder":"Select Role",
        "AddNew": false,
        "ColumnWidth": "200",
        "ColumnType": "string,string",
        "isKeyField": true
      }
     
    },
    {
      "Name": "RoleVsModulesId",
      "Type": "number",
      "Required": false,
      "ValidRegEx": "",
      "PostData": true,
      "DefaultValue": 0
    },
    {
      "Name": "RoleId",
      "Type": "number",
      "Required": false,
      "ValidRegEx": "",
      "PostData": true,
      "DefaultValue": -1
    },
    {
      "Name": "RoleName",
      "Type": "string",
      "Required": true,
      "ValidRegEx": "",
      "DefaultValue": "",
      "PostData": true,
      "width": "200",
      "Label": "Role"
    },
    {
      "Name": "RoleCode",
      "Type": "string",
      "Required": false,
      "ValidRegEx": "",
      "DefaultValue": "",
      "PostData": true,
      "width": "200",
      "Label": "Role"
    },
   
    {
      "Name": "RoleModuleArray",
      "Type": "string",
      "Label": "Role Module Array",
      "IsFieldRequired": false,
      "Required": true,
      "PostData": true,
      "Grid": [
        {
          "Label": "#",
          "value": "RoleVsModulesSlNo",
          "width": 50,
          "Type": "DefaultSNo",
          "IsVisible": true,
          "SNo": 1,
          "sticky": false,
          "Required": false,
          "PostData": true,
          "left": 0
        },
        {
          "Label": "Module*",
          "value": "ModuleName",
          "width": 220,
          "Type": "Picklist",
          "IsVisible": true,
          "SNo": 2,
          "sticky": false,
          "Required": true,
          "PostData": true,
          "left": 0,
          "PicklistDetail": {
            "PicklistUrl": "ClientModule",
            "PicklistDisplayLabel":"Code,Name",
            "PicklistDisplayText": "ModuleCode,ModuleName",
            "PicklistSearchFields": "ModuleName",
            "Multiple": false,
            "PicklistSelection": "ModuleId",
            "PicklistTitle": "ModuleName",
            "Label": "",
            "Width": 200,
            "LinkId": "ModuleId,ModuleName",
            "AddNew": false,
            "PlaceHolder":"Select Module",
            "MaxLength": 35,
            "ColumnWidth": "200,200",
            "ColumnType": "string,string",
            "PicklistCriteria": "RoleModuleGrid"
          }
        },
        {
          "Label": "Default Menu",
          "value": "DefaultMenuName",
          "width": 280,
          "Type": "Picklist",
          "IsVisible": true,
          "Required": false,
          "SNo": 3,
          "sticky": false,
          "DefaultValue": "NONE",
          "left": 0,
          "PicklistDetail": {
            "PicklistUrl": "DefaultMenu",
            "PicklistDisplayText": "Code,Name",
            "PicklistSearchFields": "Name",
            "Multiple": false,
            "PicklistSelection": "Id",
            "PicklistTitle": "Name",
            "Label": "",
            "Width": 260,
            "PlaceHolder":"Select Default Menu",
            "AddNew": false,
            "LinkId": "DefaultMenuId,DefaultMenuName",
            "MaxLength": 35,
            "ColumnWidth": "200,200",
            "ColumnType": "string,string",
            "PicklistCriteria": "RoleModuleDefault"
          }
        },
        {
          "Label": "Module",
          "value": "ModuleId",
          "width": 200,
          "Type": "string",
          "IsVisible": false,
          "sticky": false,
          "DefaultId": true,
          "SNo": 4,
          "left": 0,
          "Required": false,
          "PostData": true
        },
        {
          "value": "RoleId",
          "width": 50,
          "Type": "number",
          "IsVisible": false,
          "SNo": 6,
          "sticky": false,
          "left": 0,
          "Required": false,
          "PostData": true,
          "DefaultId": true,
          "DefaultValue": -1
        },
        {
          "value": "RoleVsModulesId",
          "width": 50,
          "Type": "number",
          "IsVisible": false,
          "SNo": 6,
          "sticky": false,
          "left": 0,
          "Required": false,
          "PostData": true,
          "DefaultValue": 0
        },
        {
          "Label": "Modulecode",
          "value": "ModuleCode",
          "width": 50,
          "Type": "string",
          "IsVisible": false,
          "SNo": 5,
          "sticky": false,
          "left": 0,
          "DefaultValue": "NONE",
          "Required": false,
          "PostData": true
        },
        {
          "Label": "Default MenuID",
          "value": "DefaultMenuId",
          "width": 50,
          "Type": "number",
          "IsVisible": false,
          "SNo": 6,
          "sticky": false,
          "left": 0,
          "Required": false,
          "PostData": true,
          "DefaultValue": -1
        },
        {
          "Label": "Default Code",
          "value": "DefaultMenuCode",
          "width": 50,
          "Type": "number",
          "IsVisible": false,
          "SNo": 7,
          "sticky": false,
          "left": 0,
          "Required": false,
          "PostData": true
        },
        {
          "value": "undefined",
          "Type": "string",
          "IsVisible": false,
          "SNo": 7,
          "sticky": false,
          "DefaultValue": "",
          "left": 0,
          "Required": false,
          "PostData": true
        }
      ]
    }
  ]
}