{
    "ObjectFields":[
        {
            "CostAddOnFieldsCode": {
                "PicklistUrl": "Adonfiled",
                "PicklistDisplayText": "Code,Name",
                "PicklistSearchFields": "Code,Name",
                "Multiple": false,
                "PicklistSelection": "Id",
                "SLno":1,
                "PicklistTitle": "Code",
                "Label": "Code*",
                "Width": 160,
                "AddNew": true,
                "MaxLength": 10,
                "PlaceHolder": "Enter Code",
                "ColumnWidth": "200",
                "ColumnType": "string,string",
                "isKeyField": true
            },
            "CostAddOnFieldsName": {
                "PicklistUrl": "Adonfiled",
                "PicklistDisplayText": "Code,Name",
                "PicklistSearchFields": "Code,Name",
                "Multiple": false,
                "PicklistSelection": "Id",
                "PicklistTitle": "Name",
                "Label": "Name*",
                "Width": 360,
                "AddNew": true,
                "MaxLength": 30,
                "PlaceHolder": "Enter Name",
                "ColumnWidth": "200",
                "ColumnType": "string,string",
                "isKeyField": true
            }
        },
        {
            "Name": "CostAddOnFieldsId",
            "Type": "number",
            "Required": true,
            "ValidRegEx": "",
            "PostData": true,
            "DefaultValue": 0,
            "Width": 360
        },
        {
            "Name": "CostAddOnFieldsCode",
            "Type": "string",
            "Required": true,
            "ValidRegEx": "",
            "DefaultValue": "",
            "PostData": true,
            "width": 360,
            "Label": "Code*"
        },
        {
            "Name": "CostAddOnFieldsName",
            "Type": "string",
            "Required": true,
            "ValidRegEx": "",
            "DefaultValue": "",
            "PostData": true,
            "Width": 360,
            "Label": "Name*"
        },
        {
            "Name": "CostAddOnFieldsDisplayName",
            "Type": "string",
            "Required": true,
            "ValidRegEx": "",
            "DefaultValue": "",
            "PostData": true,
            "MaxLength":50,
            "Width": 360,
            "Label": "DisplayName*",
            "Placeholder":"Enter DisplayName"
        },
        {
            "Name": "CostAddOnFieldsDataType",
            "Type": "number",
            "Label": "DataType*",
            "Placeholder": "",
            "Required": true,
            "ValidRegEx": "",
            "DefaultValue": "",
            "PostData": true,
            "Width": 200,
            "PickLists": [
                {
                    "key": "",
                    "value": "Please Select"
                },
                {
                    "key": 0,
                    "value": "DateTime"
                },
                {
                    "key": 1,
                    "value": "String"
                },
                {
                    "key": 2,
                    "value": "Number"
                },
                {
                    "key": 3,
                    "value": "ListOfValue"
                }
            ]
        },
        {
            "Name": "CostAddOnFieldsDataSize",
            "Type": "string",
            "Required": true,
            "ValidRegEx": "",
            "DefaultValue": "",
            "PostData": true,
            "Width": "360px",
            "Label": "DataSize*",
            "Placeholder":"DataSize",
            "MaxLength":3
        },
        {
            "Name": "CostAddOnFieldsDefaultValue",
            "Type": "string",
            "Required": true,
            "ValidRegEx": "",
            "DefaultValue": "",
            "PostData": true,
            "Width": 360,
            "Label": "Default Value",
            "Placeholder":"Enter Default Value",
            "MaxLength":100
        },
        {
            "Name": "CostAddOnFieldsIsDaily",
            "Type": "number",
            "Required": true,
            "ValidRegEx": "",
            "DefaultValue": 1,
            "PostData": true,
            "Width": 360,
            "Label": "Is Daily?"
        },
        {
            "Name": "CostAddOnFieldsApplicableType",
            "Type": "number",
            "Label": "Applicable Type*",
            "Placeholder": "",
            "Required": true,
            "ValidRegEx": "",
            "DefaultValue": "",
            "PostData": true,
            "Width": 200,
            "PickLists": [
                {
                    "key": 0,
                    "value": "Overall"
                },
                {
                    "key": 1,
                    "value": "OULevel"
                },
                {
                    "key": 2,
                    "value": "Product"
                },
                {
                    "key": 3,
                    "value": "CostCenter"
                },
                {
                    "key": 4,
                    "value": "CostCenter Product"
                }
            ]
        },
        {
            "Name": "CostAddOnFieldsNature",
            "Type": "number",
            "Label": "Nature*",
            "Placeholder": "",
            "Required": true,
            "ValidRegEx": "",
            "DefaultValue": "",
            "PostData": true,
            "Width": 200,
            "PickLists": [
                {
                    "key": 0,
                    "value": "Fixed"
                },
                {
                    "key": 1,
                    "value": "Periodic"
                }
            ]
        },
        {
            "Name": "CostAddOnFieldsRemarks",
            "Type": "string",
            "Required": true,
            "ValidRegEx": "",
            "DefaultValue": "",
            "PostData": true,
            "Width": 360,
            "Label": "Remarks",
            "Placeholder":"Enter Remarks",
            "MaxLength":100
        },
        {
            "Name": "CostAddOnFieldsStatus",
            "Type": "number",
            "Required": false,
            "ValidRegEx": "",
            "DefaultValue": 1,
            "width": 100
        },
        {
            "Name": "CostAddOnFieldsVersion",
            "Type": "number",
            "Required": false,
            "ValidRegEx": "",
            "DefaultValue": 1,
            "width": 100
        },
        {
            "Name": "CostAddOnFieldsCreatedOn",
            "Type": "string",
            "Required": false,
            "ValidRegEx": "",
            "DefaultValue": "/Date(1704475560000)/",
            "width": 100
        },
        {
            "Name": "CostAddOnFieldsCreatedByName",
            "Type": "string",
            "Required": false,
            "ValidRegEx": "",
            "DefaultValue": "DEMO",
            "width": 100
        },
        {
            "Name": "LovTypeModifiedOn",
            "Type": "string",
            "Required": false,
            "ValidRegEx": "",
            "DefaultValue": "/Date(1704475560000)/",
            "width": 100
        },
        {
            "Name": "LovTypeModifiedByName",
            "Type": "any",
            "Required": false,
            "ValidRegEx": "",
            "DefaultValue": "ADMIN",
            "width": 100
        }
       
    ]
}